dokumanlar/LVT/Armes 5000 A pano/1600 A Şalter Icc Ch1.csv

#CLOCK=0.200000000
#SIZE=1000
#PROBE=0
#VOLTDIV=7
-0.044727,0,0
-0.044727,0,0
-0.056395,0,0
-0.036948,0,0
-0.044727,0,0
-0.036948,0,0
-0.056395,0,0
-0.056395,0,0
-0.056395,0,0
-0.064173,0,0
-0.036948,0,0
-0.056395,0,0
-0.044727,0,0
-0.036948,0,0
-0.056395,0,0
-0.056395,0,0
-0.056395,0,0
-0.036948,0,0
-0.056395,0,0
-0.064173,0,0
-0.044727,0,0
-0.056395,0,0
-0.056395,0,0
-0.056395,0,0
-0.044727,0,0
-0.036948,0,0
-0.056395,0,0
-0.056395,0,0
-0.044727,0,0
-0.044727,0,0
-0.036948,0,0
-0.056395,0,0
-0.056395,0,0
-0.044727,0,0
-0.036948,0,0
-0.056395,0,0
-0.056395,0,0
-0.056395,0,0
-0.036948,0,0
-0.056395,0,0
-0.036948,0,0
-0.056395,0,0
-0.044727,0,0
-0.056395,0,0
-0.036948,0,0
-0.044727,0,0
-0.036948,0,0
-0.036948,0,0
-0.044727,0,0
-0.056395,0,0
-0.056395,0,0
-0.064173,0,0
-0.036948,0,0
-0.056395,0,0
-0.056395,0,0
-0.064173,0,0
-0.044727,0,0
-0.056395,0,0
-0.044727,0,0
-0.056395,0,0
-0.056395,0,0
-0.056395,0,0
-0.044727,0,0
-0.056395,0,0
-0.056395,0,0
-0.044727,0,0
-0.044727,0,0
-0.056395,0,0
-0.056395,0,0
-0.064173,0,0
-0.044727,0,0
-0.025280,0,0
-0.036948,0,0
-0.044727,0,0
-0.064173,0,0
-0.036948,0,0
-0.056395,0,0
-0.044727,0,0
-0.056395,0,0
-0.064173,0,0
-0.056395,0,0
-0.056395,0,0
-0.044727,0,0
-0.044727,0,0
-0.064173,0,0
-0.064173,0,0
-0.044727,0,0
-0.044727,0,0
-0.056395,0,0
-0.056395,0,0
-0.044727,0,0
-0.044727,0,0
-0.036948,0,0
-0.044727,0,0
-0.036948,0,0
-0.064173,0,0
-0.044727,0,0
-0.056395,0,0
-0.044727,0,0
-0.056395,0,0
-0.036948,0,0
-0.044727,0,0
-0.056395,0,0
-0.056395,0,0
-0.056395,0,0
-0.056395,0,0
-0.044727,0,0
-0.056395,0,0
-0.056395,0,0
-0.044727,0,0
-0.036948,0,0
-0.056395,0,0
-0.064173,0,0
-0.056395,0,0
-0.036948,0,0
-0.056395,0,0
-0.056395,0,0
-0.044727,0,0
-0.036948,0,0
-0.056395,0,0
-0.036948,0,0
-0.044727,0,0
-0.036948,0,0
-0.036948,0,0
-0.056395,0,0
-0.056395,0,0
-0.056395,0,0
-0.056395,0,0
-0.056395,0,0
-0.056395,0,0
-0.064173,0,0
-0.044727,0,0
-0.056395,0,0
-0.056395,0,0
-0.036948,0,0
-0.056395,0,0
-0.056395,0,0
-0.056395,0,0
-0.056395,0,0
-0.056395,0,0
-0.044727,0,0
-0.025280,0,0
-0.044727,0,0
-0.056395,0,0
-0.044727,0,0
-0.044727,0,0
-0.056395,0,0
-0.056395,0,0
-0.044727,0,0
-0.056395,0,0
-0.056395,0,0
-0.044727,0,0
-0.044727,0,0
-0.064173,0,0
-0.036948,0,0
-0.056395,0,0
-0.044727,0,0
-0.056395,0,0
-0.036948,0,0
-0.056395,0,0
-0.056395,0,0
-0.056395,0,0
-0.056395,0,0
-0.036948,0,0
-0.064173,0,0
-0.036948,0,0
-0.056395,0,0
-0.056395,0,0
-0.036948,0,0
-0.044727,0,0
-0.056395,0,0
-0.036948,0,0
-0.056395,0,0
-0.036948,0,0
-0.036948,0,0
-0.056395,0,0
-0.044727,0,0
-0.056395,0,0
-0.036948,0,0
-0.044727,0,0
-0.044727,0,0
-0.044727,0,0
-0.044727,0,0
-0.044727,0,0
-0.056395,0,0
-0.036948,0,0
-0.056395,0,0
-0.036948,0,0
-0.056395,0,0
-0.036948,0,0
-0.044727,0,0
-0.056395,0,0
-0.056395,0,0
-0.056395,0,0
-0.056395,0,0
-0.064173,0,0
-0.036948,0,0
-0.056395,0,0
-0.056395,0,0
-0.044727,0,0
-0.044727,0,0
-0.056395,0,0
-0.036948,0,0
-0.075841,0,0
-0.056395,0,0
0.060284,0,0
0.215856,0,0
0.371427,0,0
0.429767,0,0
0.371427,0,0
0.215856,0,0
0.021391,0,0
-0.141959,0,0
-0.231413,0,0
-0.192520,0,0
-0.064173,0,0
0.106955,0,0
0.254748,0,0
0.320866,0,0
0.274195,0,0
0.126402,0,0
-0.064173,0,0
-0.211966,0,0
-0.289752,0,0
-0.250859,0,0
-0.114734,0,0
0.048616,0,0
0.184741,0,0
0.079730,0,0
-0.036948,0,0
-0.036948,0,0
-0.044727,0,0
-0.056395,0,0
-0.056395,0,0
-0.056395,0,0
-0.056395,0,0
-0.056395,0,0
-0.044727,0,0
-0.044727,0,0
-0.064173,0,0
-0.056395,0,0
-0.036948,0,0
-0.056395,0,0
-0.056395,0,0
-0.056395,0,0
-0.044727,0,0
-0.056395,0,0
-0.064173,0,0
-0.075841,0,0
-0.036948,0,0
-0.044727,0,0
-0.075841,0,0
-0.036948,0,0
-0.056395,0,0
-0.044727,0,0
-0.056395,0,0
-0.064173,0,0
-0.064173,0,0
-0.056395,0,0
-0.044727,0,0
-0.064173,0,0
-0.044727,0,0
-0.056395,0,0
-0.036948,0,0
-0.044727,0,0
-0.044727,0,0
-0.044727,0,0
-0.056395,0,0
-0.044727,0,0
-0.056395,0,0
-0.036948,0,0
-0.044727,0,0
-0.044727,0,0
-0.056395,0,0
-0.056395,0,0
-0.056395,0,0
-0.056395,0,0
-0.036948,0,0
-0.044727,0,0
-0.056395,0,0
-0.056395,0,0
-0.044727,0,0
-0.056395,0,0
-0.036948,0,0
-0.056395,0,0
-0.056395,0,0
-0.064173,0,0
-0.056395,0,0
-0.044727,0,0
-0.056395,0,0
-0.064173,0,0
-0.056395,0,0
-0.064173,0,0
-0.036948,0,0
-0.044727,0,0
-0.044727,0,0
-0.056395,0,0
-0.056395,0,0
-0.064173,0,0
-0.044727,0,0
-0.056395,0,0
-0.044727,0,0
-0.075841,0,0
-0.036948,0,0
-0.056395,0,0
-0.056395,0,0
-0.056395,0,0
-0.064173,0,0
-0.056395,0,0
-0.056395,0,0
-0.044727,0,0
-0.044727,0,0
-0.064173,0,0
-0.044727,0,0
-0.064173,0,0
-0.044727,0,0
-0.056395,0,0
-0.064173,0,0
-0.056395,0,0
-0.056395,0,0
-0.044727,0,0
-0.044727,0,0
-0.036948,0,0
-0.036948,0,0
-0.044727,0,0
-0.064173,0,0
-0.056395,0,0
-0.064173,0,0
-0.064173,0,0
-0.044727,0,0
-0.044727,0,0
-0.044727,0,0
-0.056395,0,0
-0.056395,0,0
-0.044727,0,0
-0.044727,0,0
-0.056395,0,0
-0.044727,0,0
-0.056395,0,0
-0.056395,0,0
-0.075841,0,0
-0.044727,0,0
-0.036948,0,0
-0.056395,0,0
-0.044727,0,0
-0.056395,0,0
-0.044727,0,0
-0.056395,0,0
-0.056395,0,0
-0.044727,0,0
-0.044727,0,0
-0.056395,0,0
-0.044727,0,0
-0.056395,0,0
-0.036948,0,0
-0.056395,0,0
-0.056395,0,0
-0.056395,0,0
-0.044727,0,0
-0.044727,0,0
-0.036948,0,0
-0.056395,0,0
-0.044727,0,0
-0.056395,0,0
-0.056395,0,0
-0.044727,0,0
-0.056395,0,0
-0.056395,0,0
-0.044727,0,0
-0.056395,0,0
-0.056395,0,0
-0.056395,0,0
-0.056395,0,0
-0.044727,0,0
-0.056395,0,0
-0.044727,0,0
-0.056395,0,0
-0.056395,0,0
-0.056395,0,0
-0.056395,0,0
-0.056395,0,0
-0.044727,0,0
-0.056395,0,0
-0.056395,0,0
-0.056395,0,0
-0.056395,0,0
-0.056395,0,0
-0.056395,0,0
-0.056395,0,0
-0.064173,0,0
-0.044727,0,0
-0.056395,0,0
-0.044727,0,0
-0.044727,0,0
-0.064173,0,0
-0.056395,0,0
-0.044727,0,0
-0.064173,0,0
-0.044727,0,0
-0.044727,0,0
-0.064173,0,0
-0.056395,0,0
-0.064173,0,0
-0.064173,0,0
-0.056395,0,0
-0.044727,0,0
-0.044727,0,0
-0.044727,0,0
-0.044727,0,0
-0.056395,0,0
-0.056395,0,0
-0.064173,0,0
-0.044727,0,0
-0.056395,0,0
-0.064173,0,0
-0.044727,0,0
-0.044727,0,0
-0.056395,0,0
-0.064173,0,0
-0.036948,0,0
-0.056395,0,0
-0.056395,0,0
-0.044727,0,0
-0.056395,0,0
-0.056395,0,0
-0.044727,0,0
-0.044727,0,0
-0.044727,0,0
-0.056395,0,0
-0.044727,0,0
-0.056395,0,0
-0.056395,0,0
-0.056395,0,0
-0.056395,0,0
-0.056395,0,0
-0.056395,0,0
-0.064173,0,0
-0.044727,0,0
-0.056395,0,0
-0.056395,0,0
-0.056395,0,0
-0.056395,0,0
-0.056395,0,0
-0.056395,0,0
-0.056395,0,0
-0.056395,0,0
-0.064173,0,0
-0.056395,0,0
-0.044727,0,0
-0.064173,0,0
-0.044727,0,0
-0.036948,0,0
-0.064173,0,0
-0.064173,0,0
-0.056395,0,0
-0.036948,0,0
-0.044727,0,0
-0.056395,0,0
-0.056395,0,0
-0.064173,0,0
-0.056395,0,0
-0.056395,0,0
-0.044727,0,0
-0.064173,0,0
-0.056395,0,0
-0.036948,0,0
-0.056395,0,0
-0.044727,0,0
-0.044727,0,0
-0.056395,0,0
-0.036948,0,0
-0.036948,0,0
-0.056395,0,0
-0.044727,0,0
-0.036948,0,0
-0.044727,0,0
-0.044727,0,0
-0.044727,0,0
-0.056395,0,0
-0.056395,0,0
-0.044727,0,0
-0.056395,0,0
-0.056395,0,0
-0.044727,0,0
-0.056395,0,0
-0.056395,0,0
-0.044727,0,0
-0.056395,0,0
-0.044727,0,0
-0.044727,0,0
-0.056395,0,0
-0.056395,0,0
-0.056395,0,0
-0.064173,0,0
-0.056395,0,0
-0.064173,0,0
-0.056395,0,0
-0.056395,0,0
-0.056395,0,0
-0.056395,0,0
-0.056395,0,0
-0.056395,0,0
-0.056395,0,0
-0.044727,0,0
-0.056395,0,0
-0.056395,0,0
-0.064173,0,0
-0.044727,0,0
-0.056395,0,0
-0.056395,0,0
-0.044727,0,0
-0.056395,0,0
-0.044727,0,0
-0.064173,0,0
-0.056395,0,0
-0.036948,0,0
-0.044727,0,0
-0.044727,0,0
-0.064173,0,0
-0.036948,0,0
-0.056395,0,0
-0.056395,0,0
-0.044727,0,0
-0.064173,0,0
-0.044727,0,0
-0.056395,0,0
-0.036948,0,0
-0.056395,0,0
-0.056395,0,0
-0.044727,0,0
-0.056395,0,0
-0.056395,0,0
-0.044727,0,0
-0.044727,0,0
-0.044727,0,0
-0.056395,0,0
-0.044727,0,0
-0.056395,0,0
-0.056395,0,0
-0.064173,0,0
-0.044727,0,0
-0.044727,0,0
-0.056395,0,0
-0.056395,0,0
-0.056395,0,0
-0.056395,0,0
-0.056395,0,0
-0.044727,0,0
-0.044727,0,0
-0.044727,0,0
-0.056395,0,0
-0.036948,0,0
-0.044727,0,0
-0.056395,0,0
-0.056395,0,0
-0.056395,0,0
-0.044727,0,0
-0.064173,0,0
-0.036948,0,0
-0.044727,0,0
-0.044727,0,0
-0.056395,0,0
-0.056395,0,0
-0.064173,0,0
-0.056395,0,0
-0.036948,0,0
-0.036948,0,0
-0.044727,0,0
-0.075841,0,0
-0.036948,0,0
-0.044727,0,0
-0.075841,0,0
-0.056395,0,0
-0.064173,0,0
-0.056395,0,0
-0.036948,0,0
-0.044727,0,0
-0.044727,0,0
-0.056395,0,0
-0.056395,0,0
-0.064173,0,0
-0.044727,0,0
-0.056395,0,0
-0.044727,0,0
-0.044727,0,0
-0.056395,0,0
-0.056395,0,0
-0.056395,0,0
-0.044727,0,0
-0.056395,0,0
-0.056395,0,0
-0.044727,0,0
-0.056395,0,0
-0.044727,0,0
-0.056395,0,0
-0.056395,0,0
-0.056395,0,0
-0.056395,0,0
-0.044727,0,0
-0.056395,0,0
-0.044727,0,0
-0.056395,0,0
-0.056395,0,0
-0.044727,0,0
-0.044727,0,0
-0.056395,0,0
-0.056395,0,0
-0.044727,0,0
-0.056395,0,0
-0.064173,0,0
-0.064173,0,0
-0.056395,0,0
-0.036948,0,0
-0.056395,0,0
-0.056395,0,0
-0.056395,0,0
-0.056395,0,0
-0.044727,0,0
-0.056395,0,0
-0.056395,0,0
-0.056395,0,0
-0.036948,0,0
-0.056395,0,0
-0.064173,0,0
-0.044727,0,0
-0.064173,0,0
-0.056395,0,0
-0.044727,0,0
-0.056395,0,0
-0.056395,0,0
-0.056395,0,0
-0.056395,0,0
-0.056395,0,0
-0.044727,0,0
-0.056395,0,0
-0.056395,0,0
-0.056395,0,0
-0.044727,0,0
-0.044727,0,0
-0.056395,0,0
-0.056395,0,0
-0.064173,0,0
-0.044727,0,0
-0.036948,0,0
-0.044727,0,0
-0.044727,0,0
-0.056395,0,0
-0.056395,0,0
-0.044727,0,0
-0.075841,0,0
-0.056395,0,0
-0.064173,0,0
-0.056395,0,0
-0.036948,0,0
-0.036948,0,0
-0.044727,0,0
-0.056395,0,0
-0.044727,0,0
-0.056395,0,0
-0.044727,0,0
-0.036948,0,0
-0.036948,0,0
-0.044727,0,0
-0.056395,0,0
-0.044727,0,0
-0.056395,0,0
-0.056395,0,0
-0.044727,0,0
-0.036948,0,0
-0.056395,0,0
-0.044727,0,0
-0.056395,0,0
-0.056395,0,0
-0.036948,0,0
-0.044727,0,0
-0.056395,0,0
-0.044727,0,0
-0.044727,0,0
-0.044727,0,0
-0.064173,0,0
-0.044727,0,0
-0.044727,0,0
-0.056395,0,0
-0.044727,0,0
-0.044727,0,0
-0.056395,0,0
-0.044727,0,0
-0.056395,0,0
-0.056395,0,0
-0.056395,0,0
-0.044727,0,0
-0.056395,0,0
-0.056395,0,0
-0.044727,0,0
-0.056395,0,0
-0.056395,0,0
-0.044727,0,0
-0.044727,0,0
-0.056395,0,0
-0.044727,0,0
-0.056395,0,0
-0.056395,0,0
-0.036948,0,0
-0.056395,0,0
-0.036948,0,0
-0.056395,0,0
-0.056395,0,0
-0.056395,0,0
-0.056395,0,0
-0.044727,0,0
-0.056395,0,0
-0.064173,0,0
-0.044727,0,0
-0.056395,0,0
-0.056395,0,0
-0.056395,0,0
-0.056395,0,0
-0.056395,0,0
-0.056395,0,0
-0.056395,0,0
-0.056395,0,0
-0.044727,0,0
-0.044727,0,0
-0.056395,0,0
-0.064173,0,0
-0.056395,0,0
-0.056395,0,0
-0.044727,0,0
-0.064173,0,0
-0.044727,0,0
-0.056395,0,0
-0.044727,0,0
-0.044727,0,0
-0.064173,0,0
-0.044727,0,0
-0.056395,0,0
-0.044727,0,0
-0.044727,0,0
-0.056395,0,0
-0.056395,0,0
-0.036948,0,0
-0.044727,0,0
-0.044727,0,0
-0.036948,0,0
-0.044727,0,0
-0.056395,0,0
-0.056395,0,0
-0.056395,0,0
-0.064173,0,0
-0.056395,0,0
-0.036948,0,0
-0.056395,0,0
-0.056395,0,0
-0.056395,0,0
-0.044727,0,0
-0.044727,0,0
-0.056395,0,0
-0.056395,0,0
-0.036948,0,0
-0.064173,0,0
-0.036948,0,0
-0.044727,0,0
-0.064173,0,0
-0.044727,0,0
-0.056395,0,0
-0.036948,0,0
-0.056395,0,0
-0.056395,0,0
-0.056395,0,0
-0.044727,0,0
-0.056395,0,0
-0.056395,0,0
-0.056395,0,0
-0.044727,0,0
-0.056395,0,0
-0.044727,0,0
-0.044727,0,0
-0.056395,0,0
-0.044727,0,0
-0.044727,0,0
-0.044727,0,0
-0.056395,0,0
-0.044727,0,0
-0.044727,0,0
-0.056395,0,0
-0.064173,0,0
-0.056395,0,0
-0.064173,0,0
-0.044727,0,0
-0.056395,0,0
-0.056395,0,0
-0.056395,0,0
-0.056395,0,0
-0.056395,0,0
-0.044727,0,0
-0.056395,0,0
-0.056395,0,0
-0.044727,0,0
-0.044727,0,0
-0.056395,0,0
-0.044727,0,0
-0.044727,0,0
-0.056395,0,0
-0.056395,0,0
-0.056395,0,0
-0.044727,0,0
-0.056395,0,0
-0.044727,0,0
-0.056395,0,0
-0.056395,0,0
-0.044727,0,0
-0.056395,0,0
-0.056395,0,0
-0.036948,0,0
-0.044727,0,0
-0.056395,0,0
-0.056395,0,0
-0.044727,0,0
-0.056395,0,0
-0.056395,0,0
-0.056395,0,0
-0.056395,0,0
-0.056395,0,0
-0.064173,0,0
-0.044727,0,0
-0.056395,0,0
-0.056395,0,0
-0.056395,0,0
-0.036948,0,0
-0.056395,0,0
-0.044727,0,0
-0.056395,0,0
-0.056395,0,0
-0.056395,0,0
-0.056395,0,0
-0.056395,0,0
-0.044727,0,0
-0.056395,0,0
-0.056395,0,0
-0.044727,0,0
-0.056395,0,0
-0.056395,0,0
-0.056395,0,0
-0.025280,0,0
-0.056395,0,0
-0.056395,0,0
-0.044727,0,0
-0.056395,0,0
-0.044727,0,0
-0.056395,0,0
-0.056395,0,0
-0.064173,0,0
-0.056395,0,0
-0.036948,0,0
-0.044727,0,0
-0.056395,0,0
-0.044727,0,0
-0.056395,0,0
-0.044727,0,0
-0.056395,0,0
-0.044727,0,0
-0.044727,0,0
-0.056395,0,0
-0.044727,0,0
-0.056395,0,0
-0.056395,0,0
-0.044727,0,0
-0.056395,0,0
-0.044727,0,0
-0.056395,0,0
-0.036948,0,0
-0.056395,0,0
-0.056395,0,0
-0.056395,0,0
-0.036948,0,0
-0.044727,0,0
-0.056395,0,0
-0.044727,0,0
-0.056395,0,0
-0.036948,0,0
-0.056395,0,0
-0.056395,0,0
-0.036948,0,0
-0.036948,0,0
-0.044727,0,0
-0.044727,0,0
-0.056395,0,0
-0.064173,0,0
-0.056395,0,0
-0.056395,0,0
-0.056395,0,0
-0.056395,0,0
-0.056395,0,0
-0.044727,0,0
-0.044727,0,0
-0.056395,0,0
-0.056395,0,0
-0.056395,0,0
-0.044727,0,0
-0.056395,0,0
-0.056395,0,0
-0.056395,0,0
-0.044727,0,0
-0.056395,0,0
-0.056395,0,0
-0.044727,0,0
-0.056395,0,0
-0.056395,0,0
-0.056395,0,0
-0.056395,0,0
-0.036948,0,0
-0.044727,0,0
-0.044727,0,0
-0.064173,0,0
-0.056395,0,0
-0.044727,0,0
-0.056395,0,0
-0.044727,0,0
-0.056395,0,0
-0.056395,0,0
-0.056395,0,0
-0.056395,0,0
-0.044727,0,0
-0.056395,0,0
-0.056395,0,0
-0.056395,0,0
-0.056395,0,0
-0.056395,0,0
-0.056395,0,0
-0.056395,0,0
-0.044727,0,0
-0.064173,0,0
-0.044727,0,0
-0.056395,0,0
-0.056395,0,0
-0.056395,0,0
-0.056395,0,0
-0.036948,0,0
-0.056395,0,0
-0.044727,0,0
-0.044727,0,0
-0.064173,0,0
-0.056395,0,0
-0.064173,0,0
-0.044727,0,0
-0.044727,0,0
-0.044727,0,0
-0.044727,0,0
-0.064173,0,0
-0.036948,0,0
-0.044727,0,0
-0.056395,0,0
-0.044727,0,0
-0.044727,0,0
-0.056395,0,0
-0.044727,0,0
-0.044727,0,0
-0.056395,0,0
-0.056395,0,0
-0.056395,0,0
-0.056395,0,0
-0.056395,0,0
-0.056395,0,0
-0.056395,0,0
-0.025280,0,0
-0.036948,0,0
-0.056395,0,0
-0.036948,0,0
-0.044727,0,0
-0.056395,0,0
-0.064173,0,0
-0.064173,0,0
-0.056395,0,0
-0.056395,0,0
-0.056395,0,0
-0.056395,0,0
-0.056395,0,0
-0.056395,0,0
-0.056395,0,0
-0.056395,0,0
-0.044727,0,0
-0.056395,0,0
-0.056395,0,0
-0.064173,0,0
-0.056395,0,0
-0.056395,0,0
-0.056395,0,0
-0.056395,0,0
-0.064173,0,0
-0.056395,0,0
-0.056395,0,0
-0.056395,0,0
-0.044727,0,0
-0.056395,0,0
-0.056395,0,0
-0.056395,0,0
-0.056395,0,0
-0.036948,0,0
-0.056395,0,0
-0.056395,0,0
