dokumanlar/LVT/Armes 5000 A pano/1600 A Şalter Icc Ch2.csv

#CLOCK=0.200000000
#SIZE=1000
#PROBE=0
#VOLTDIV=7
-0.056395,0,0
-0.056395,0,0
-0.056395,0,0
-0.056395,0,0
-0.044727,0,0
-0.044727,0,0
-0.036948,0,0
-0.056395,0,0
-0.044727,0,0
-0.044727,0,0
-0.056395,0,0
-0.056395,0,0
-0.044727,0,0
-0.056395,0,0
-0.044727,0,0
-0.056395,0,0
-0.044727,0,0
-0.044727,0,0
-0.044727,0,0
-0.056395,0,0
-0.056395,0,0
-0.064173,0,0
-0.044727,0,0
-0.056395,0,0
-0.056395,0,0
-0.044727,0,0
-0.044727,0,0
-0.056395,0,0
-0.056395,0,0
-0.044727,0,0
-0.056395,0,0
-0.036948,0,0
-0.056395,0,0
-0.044727,0,0
-0.044727,0,0
-0.044727,0,0
-0.056395,0,0
-0.056395,0,0
-0.056395,0,0
-0.044727,0,0
-0.064173,0,0
-0.044727,0,0
-0.056395,0,0
-0.044727,0,0
-0.064173,0,0
-0.056395,0,0
-0.056395,0,0
-0.044727,0,0
-0.036948,0,0
-0.064173,0,0
-0.044727,0,0
-0.056395,0,0
-0.056395,0,0
-0.056395,0,0
-0.044727,0,0
-0.056395,0,0
-0.056395,0,0
-0.036948,0,0
-0.044727,0,0
-0.044727,0,0
-0.044727,0,0
-0.044727,0,0
-0.056395,0,0
-0.075841,0,0
-0.044727,0,0
-0.056395,0,0
-0.056395,0,0
-0.075841,0,0
-0.044727,0,0
-0.056395,0,0
-0.056395,0,0
-0.056395,0,0
-0.056395,0,0
-0.064173,0,0
-0.044727,0,0
-0.044727,0,0
-0.044727,0,0
-0.056395,0,0
-0.044727,0,0
-0.056395,0,0
-0.044727,0,0
-0.044727,0,0
-0.056395,0,0
-0.044727,0,0
-0.044727,0,0
-0.044727,0,0
-0.056395,0,0
-0.075841,0,0
-0.056395,0,0
-0.056395,0,0
-0.056395,0,0
-0.064173,0,0
-0.064173,0,0
-0.056395,0,0
-0.056395,0,0
-0.044727,0,0
-0.044727,0,0
-0.056395,0,0
-0.056395,0,0
-0.044727,0,0
-0.056395,0,0
-0.036948,0,0
-0.044727,0,0
-0.056395,0,0
-0.044727,0,0
-0.044727,0,0
-0.044727,0,0
-0.056395,0,0
-0.056395,0,0
-0.036948,0,0
-0.056395,0,0
-0.044727,0,0
-0.056395,0,0
-0.064173,0,0
-0.064173,0,0
-0.044727,0,0
-0.044727,0,0
-0.064173,0,0
-0.064173,0,0
-0.044727,0,0
-0.056395,0,0
-0.056395,0,0
-0.044727,0,0
-0.056395,0,0
-0.056395,0,0
-0.056395,0,0
-0.056395,0,0
-0.056395,0,0
-0.056395,0,0
-0.056395,0,0
-0.056395,0,0
-0.056395,0,0
-0.044727,0,0
-0.056395,0,0
-0.064173,0,0
-0.056395,0,0
-0.056395,0,0
-0.056395,0,0
-0.044727,0,0
-0.056395,0,0
-0.044727,0,0
-0.044727,0,0
-0.056395,0,0
-0.044727,0,0
-0.056395,0,0
-0.064173,0,0
-0.044727,0,0
-0.056395,0,0
-0.056395,0,0
-0.064173,0,0
-0.056395,0,0
-0.056395,0,0
-0.056395,0,0
-0.044727,0,0
-0.056395,0,0
-0.044727,0,0
-0.056395,0,0
-0.044727,0,0
-0.044727,0,0
-0.044727,0,0
-0.036948,0,0
-0.044727,0,0
-0.044727,0,0
-0.064173,0,0
-0.044727,0,0
-0.056395,0,0
-0.044727,0,0
-0.044727,0,0
-0.064173,0,0
-0.064173,0,0
-0.044727,0,0
-0.044727,0,0
-0.075841,0,0
-0.044727,0,0
-0.056395,0,0
-0.064173,0,0
-0.056395,0,0
-0.056395,0,0
-0.056395,0,0
-0.064173,0,0
-0.056395,0,0
-0.044727,0,0
-0.044727,0,0
-0.064173,0,0
-0.044727,0,0
-0.056395,0,0
-0.036948,0,0
-0.056395,0,0
-0.036948,0,0
-0.044727,0,0
-0.044727,0,0
-0.044727,0,0
-0.044727,0,0
-0.044727,0,0
-0.056395,0,0
-0.044727,0,0
-0.064173,0,0
-0.044727,0,0
-0.056395,0,0
-0.056395,0,0
-0.056395,0,0
-0.056395,0,0
-0.056395,0,0
-0.103066,0,0
-0.064173,0,0
0.087509,0,0
0.243081,0,0
0.371427,0,0
0.418099,0,0
0.320866,0,0
0.157516,0,0
-0.025280,0,0
-0.161406,0,0
-0.239191,0,0
-0.161406,0,0
-0.017502,0,0
0.138070,0,0
0.281973,0,0
0.320866,0,0
0.223634,0,0
0.087509,0,0
-0.095288,0,0
-0.239191,0,0
-0.278084,0,0
-0.211966,0,0
-0.075841,0,0
0.106955,0,0
0.165295,0,0
0.048616,0,0
-0.044727,0,0
-0.044727,0,0
-0.064173,0,0
-0.056395,0,0
-0.044727,0,0
-0.064173,0,0
-0.056395,0,0
-0.044727,0,0
-0.044727,0,0
-0.064173,0,0
-0.044727,0,0
-0.056395,0,0
-0.064173,0,0
-0.044727,0,0
-0.064173,0,0
-0.064173,0,0
-0.056395,0,0
-0.044727,0,0
-0.056395,0,0
-0.044727,0,0
-0.044727,0,0
-0.044727,0,0
-0.044727,0,0
-0.044727,0,0
-0.056395,0,0
-0.056395,0,0
-0.044727,0,0
-0.064173,0,0
-0.056395,0,0
-0.044727,0,0
-0.064173,0,0
-0.044727,0,0
-0.044727,0,0
-0.056395,0,0
-0.056395,0,0
-0.056395,0,0
-0.056395,0,0
-0.056395,0,0
-0.056395,0,0
-0.064173,0,0
-0.064173,0,0
-0.056395,0,0
-0.064173,0,0
-0.056395,0,0
-0.056395,0,0
-0.044727,0,0
-0.056395,0,0
-0.056395,0,0
-0.064173,0,0
-0.056395,0,0
-0.064173,0,0
-0.056395,0,0
-0.064173,0,0
-0.056395,0,0
-0.056395,0,0
-0.064173,0,0
-0.064173,0,0
-0.056395,0,0
-0.044727,0,0
-0.064173,0,0
-0.064173,0,0
-0.044727,0,0
-0.064173,0,0
-0.044727,0,0
-0.064173,0,0
-0.064173,0,0
-0.056395,0,0
-0.044727,0,0
-0.056395,0,0
-0.044727,0,0
-0.056395,0,0
-0.064173,0,0
-0.044727,0,0
-0.044727,0,0
-0.056395,0,0
-0.036948,0,0
-0.056395,0,0
-0.036948,0,0
-0.056395,0,0
-0.056395,0,0
-0.036948,0,0
-0.056395,0,0
-0.056395,0,0
-0.044727,0,0
-0.064173,0,0
-0.044727,0,0
-0.044727,0,0
-0.044727,0,0
-0.056395,0,0
-0.044727,0,0
-0.044727,0,0
-0.044727,0,0
-0.056395,0,0
-0.056395,0,0
-0.056395,0,0
-0.056395,0,0
-0.044727,0,0
-0.044727,0,0
-0.056395,0,0
-0.044727,0,0
-0.056395,0,0
-0.056395,0,0
-0.095288,0,0
-0.056395,0,0
-0.044727,0,0
-0.056395,0,0
-0.056395,0,0
-0.044727,0,0
-0.056395,0,0
-0.064173,0,0
-0.044727,0,0
-0.064173,0,0
-0.056395,0,0
-0.064173,0,0
-0.056395,0,0
-0.064173,0,0
-0.056395,0,0
-0.056395,0,0
-0.056395,0,0
-0.064173,0,0
-0.044727,0,0
-0.056395,0,0
-0.056395,0,0
-0.044727,0,0
-0.056395,0,0
-0.056395,0,0
-0.044727,0,0
-0.064173,0,0
-0.064173,0,0
-0.044727,0,0
-0.056395,0,0
-0.056395,0,0
-0.056395,0,0
-0.056395,0,0
-0.056395,0,0
-0.056395,0,0
-0.056395,0,0
-0.056395,0,0
-0.064173,0,0
-0.064173,0,0
-0.064173,0,0
-0.064173,0,0
-0.056395,0,0
-0.064173,0,0
-0.064173,0,0
-0.056395,0,0
-0.056395,0,0
-0.064173,0,0
-0.044727,0,0
-0.044727,0,0
-0.064173,0,0
-0.044727,0,0
-0.056395,0,0
-0.064173,0,0
-0.044727,0,0
-0.044727,0,0
-0.056395,0,0
-0.056395,0,0
-0.044727,0,0
-0.044727,0,0
-0.044727,0,0
-0.044727,0,0
-0.064173,0,0
-0.056395,0,0
-0.056395,0,0
-0.044727,0,0
-0.056395,0,0
-0.056395,0,0
-0.056395,0,0
-0.056395,0,0
-0.044727,0,0
-0.044727,0,0
-0.044727,0,0
-0.056395,0,0
-0.044727,0,0
-0.056395,0,0
-0.044727,0,0
-0.056395,0,0
-0.064173,0,0
-0.056395,0,0
-0.044727,0,0
-0.056395,0,0
-0.056395,0,0
-0.044727,0,0
-0.056395,0,0
-0.064173,0,0
-0.056395,0,0
-0.036948,0,0
-0.064173,0,0
-0.064173,0,0
-0.064173,0,0
-0.064173,0,0
-0.064173,0,0
-0.064173,0,0
-0.064173,0,0
-0.064173,0,0
-0.064173,0,0
-0.064173,0,0
-0.056395,0,0
-0.056395,0,0
-0.064173,0,0
-0.064173,0,0
-0.044727,0,0
-0.044727,0,0
-0.064173,0,0
-0.056395,0,0
-0.044727,0,0
-0.056395,0,0
-0.056395,0,0
-0.044727,0,0
-0.044727,0,0
-0.064173,0,0
-0.056395,0,0
-0.056395,0,0
-0.064173,0,0
-0.056395,0,0
-0.044727,0,0
-0.044727,0,0
-0.044727,0,0
-0.056395,0,0
-0.044727,0,0
-0.044727,0,0
-0.044727,0,0
-0.064173,0,0
-0.044727,0,0
-0.044727,0,0
-0.044727,0,0
-0.056395,0,0
-0.044727,0,0
-0.044727,0,0
-0.056395,0,0
-0.044727,0,0
-0.056395,0,0
-0.044727,0,0
-0.056395,0,0
-0.044727,0,0
-0.056395,0,0
-0.056395,0,0
-0.044727,0,0
-0.056395,0,0
-0.056395,0,0
-0.075841,0,0
-0.056395,0,0
-0.044727,0,0
-0.056395,0,0
-0.044727,0,0
-0.044727,0,0
-0.064173,0,0
-0.064173,0,0
-0.044727,0,0
-0.056395,0,0
-0.056395,0,0
-0.056395,0,0
-0.056395,0,0
-0.064173,0,0
-0.064173,0,0
-0.064173,0,0
-0.064173,0,0
-0.044727,0,0
-0.044727,0,0
-0.056395,0,0
-0.064173,0,0
-0.056395,0,0
-0.056395,0,0
-0.064173,0,0
-0.044727,0,0
-0.056395,0,0
-0.064173,0,0
-0.044727,0,0
-0.044727,0,0
-0.056395,0,0
-0.064173,0,0
-0.056395,0,0
-0.056395,0,0
-0.056395,0,0
-0.044727,0,0
-0.044727,0,0
-0.056395,0,0
-0.044727,0,0
-0.044727,0,0
-0.044727,0,0
-0.056395,0,0
-0.044727,0,0
-0.056395,0,0
-0.064173,0,0
-0.056395,0,0
-0.064173,0,0
-0.044727,0,0
-0.056395,0,0
-0.056395,0,0
-0.044727,0,0
-0.056395,0,0
-0.044727,0,0
-0.044727,0,0
-0.056395,0,0
-0.064173,0,0
-0.056395,0,0
-0.044727,0,0
-0.056395,0,0
-0.056395,0,0
-0.064173,0,0
-0.056395,0,0
-0.064173,0,0
-0.064173,0,0
-0.064173,0,0
-0.056395,0,0
-0.056395,0,0
-0.064173,0,0
-0.044727,0,0
-0.044727,0,0
-0.056395,0,0
-0.064173,0,0
-0.044727,0,0
-0.056395,0,0
-0.064173,0,0
-0.064173,0,0
-0.044727,0,0
-0.064173,0,0
-0.056395,0,0
-0.044727,0,0
-0.056395,0,0
-0.064173,0,0
-0.044727,0,0
-0.056395,0,0
-0.064173,0,0
-0.044727,0,0
-0.056395,0,0
-0.056395,0,0
-0.044727,0,0
-0.056395,0,0
-0.056395,0,0
-0.056395,0,0
-0.044727,0,0
-0.056395,0,0
-0.044727,0,0
-0.044727,0,0
-0.044727,0,0
-0.044727,0,0
-0.056395,0,0
-0.044727,0,0
-0.056395,0,0
-0.056395,0,0
-0.044727,0,0
-0.044727,0,0
-0.056395,0,0
-0.044727,0,0
-0.044727,0,0
-0.044727,0,0
-0.056395,0,0
-0.064173,0,0
-0.044727,0,0
-0.064173,0,0
-0.056395,0,0
-0.056395,0,0
-0.044727,0,0
-0.064173,0,0
-0.064173,0,0
-0.044727,0,0
-0.056395,0,0
-0.064173,0,0
-0.083620,0,0
-0.064173,0,0
-0.056395,0,0
-0.064173,0,0
-0.056395,0,0
-0.056395,0,0
-0.064173,0,0
-0.044727,0,0
-0.064173,0,0
-0.056395,0,0
-0.044727,0,0
-0.064173,0,0
-0.064173,0,0
-0.044727,0,0
-0.056395,0,0
-0.064173,0,0
-0.044727,0,0
-0.056395,0,0
-0.064173,0,0
-0.044727,0,0
-0.056395,0,0
-0.064173,0,0
-0.056395,0,0
-0.044727,0,0
-0.056395,0,0
-0.044727,0,0
-0.044727,0,0
-0.056395,0,0
-0.044727,0,0
-0.044727,0,0
-0.056395,0,0
-0.044727,0,0
-0.044727,0,0
-0.056395,0,0
-0.064173,0,0
-0.044727,0,0
-0.056395,0,0
-0.044727,0,0
-0.044727,0,0
-0.056395,0,0
-0.044727,0,0
-0.044727,0,0
-0.064173,0,0
-0.064173,0,0
-0.056395,0,0
-0.056395,0,0
-0.056395,0,0
-0.044727,0,0
-0.056395,0,0
-0.056395,0,0
-0.044727,0,0
-0.056395,0,0
-0.044727,0,0
-0.044727,0,0
-0.044727,0,0
-0.044727,0,0
-0.056395,0,0
-0.044727,0,0
-0.044727,0,0
-0.044727,0,0
-0.044727,0,0
-0.044727,0,0
-0.056395,0,0
-0.056395,0,0
-0.044727,0,0
-0.044727,0,0
-0.056395,0,0
-0.064173,0,0
-0.056395,0,0
-0.044727,0,0
-0.044727,0,0
-0.044727,0,0
-0.044727,0,0
-0.044727,0,0
-0.056395,0,0
-0.056395,0,0
-0.056395,0,0
-0.056395,0,0
-0.044727,0,0
-0.044727,0,0
-0.056395,0,0
-0.044727,0,0
-0.036948,0,0
-0.056395,0,0
-0.044727,0,0
-0.064173,0,0
-0.056395,0,0
-0.056395,0,0
-0.064173,0,0
-0.036948,0,0
-0.064173,0,0
-0.064173,0,0
-0.064173,0,0
-0.056395,0,0
-0.064173,0,0
-0.036948,0,0
-0.056395,0,0
-0.056395,0,0
-0.056395,0,0
-0.064173,0,0
-0.056395,0,0
-0.064173,0,0
-0.064173,0,0
-0.056395,0,0
-0.064173,0,0
-0.064173,0,0
-0.056395,0,0
-0.056395,0,0
-0.064173,0,0
-0.044727,0,0
-0.064173,0,0
-0.056395,0,0
-0.044727,0,0
-0.056395,0,0
-0.064173,0,0
-0.056395,0,0
-0.056395,0,0
-0.064173,0,0
-0.044727,0,0
-0.044727,0,0
-0.064173,0,0
-0.044727,0,0
-0.044727,0,0
-0.064173,0,0
-0.044727,0,0
-0.044727,0,0
-0.064173,0,0
-0.044727,0,0
-0.056395,0,0
-0.064173,0,0
-0.044727,0,0
-0.056395,0,0
-0.064173,0,0
-0.044727,0,0
-0.044727,0,0
-0.056395,0,0
-0.044727,0,0
-0.044727,0,0
-0.044727,0,0
-0.036948,0,0
-0.044727,0,0
-0.044727,0,0
-0.044727,0,0
-0.044727,0,0
-0.044727,0,0
-0.056395,0,0
-0.056395,0,0
-0.044727,0,0
-0.056395,0,0
-0.056395,0,0
-0.056395,0,0
-0.044727,0,0
-0.056395,0,0
-0.044727,0,0
-0.064173,0,0
-0.044727,0,0
-0.056395,0,0
-0.056395,0,0
-0.044727,0,0
-0.056395,0,0
-0.044727,0,0
-0.056395,0,0
-0.044727,0,0
-0.056395,0,0
-0.064173,0,0
-0.044727,0,0
-0.056395,0,0
-0.056395,0,0
-0.044727,0,0
-0.064173,0,0
-0.056395,0,0
-0.044727,0,0
-0.056395,0,0
-0.056395,0,0
-0.044727,0,0
-0.064173,0,0
-0.056395,0,0
-0.044727,0,0
-0.044727,0,0
-0.064173,0,0
-0.056395,0,0
-0.056395,0,0
-0.056395,0,0
-0.056395,0,0
-0.056395,0,0
-0.064173,0,0
-0.044727,0,0
-0.064173,0,0
-0.064173,0,0
-0.044727,0,0
-0.064173,0,0
-0.056395,0,0
-0.056395,0,0
-0.064173,0,0
-0.036948,0,0
-0.056395,0,0
-0.064173,0,0
-0.056395,0,0
-0.056395,0,0
-0.064173,0,0
-0.036948,0,0
-0.064173,0,0
-0.064173,0,0
-0.036948,0,0
-0.064173,0,0
-0.064173,0,0
-0.056395,0,0
-0.064173,0,0
-0.064173,0,0
-0.064173,0,0
-0.056395,0,0
-0.056395,0,0
-0.064173,0,0
-0.036948,0,0
-0.064173,0,0
-0.064173,0,0
-0.064173,0,0
-0.064173,0,0
-0.056395,0,0
-0.064173,0,0
-0.064173,0,0
-0.056395,0,0
-0.064173,0,0
-0.056395,0,0
-0.044727,0,0
-0.044727,0,0
-0.056395,0,0
-0.044727,0,0
-0.056395,0,0
-0.064173,0,0
-0.044727,0,0
-0.044727,0,0
-0.064173,0,0
-0.044727,0,0
-0.044727,0,0
-0.064173,0,0
-0.044727,0,0
-0.044727,0,0
-0.064173,0,0
-0.056395,0,0
-0.056395,0,0
-0.056395,0,0
-0.056395,0,0
-0.044727,0,0
-0.056395,0,0
-0.056395,0,0
-0.044727,0,0
-0.044727,0,0
-0.036948,0,0
-0.044727,0,0
-0.044727,0,0
-0.056395,0,0
-0.044727,0,0
-0.044727,0,0
-0.056395,0,0
-0.056395,0,0
-0.044727,0,0
-0.044727,0,0
-0.056395,0,0
-0.056395,0,0
-0.064173,0,0
-0.044727,0,0
-0.064173,0,0
-0.056395,0,0
-0.056395,0,0
-0.056395,0,0
-0.056395,0,0
-0.056395,0,0
-0.056395,0,0
-0.064173,0,0
-0.064173,0,0
-0.044727,0,0
-0.064173,0,0
-0.064173,0,0
-0.044727,0,0
-0.064173,0,0
-0.064173,0,0
-0.044727,0,0
-0.064173,0,0
-0.056395,0,0
-0.064173,0,0
-0.056395,0,0
-0.075841,0,0
-0.064173,0,0
-0.056395,0,0
-0.056395,0,0
-0.064173,0,0
-0.044727,0,0
-0.064173,0,0
-0.064173,0,0
-0.044727,0,0
-0.056395,0,0
-0.056395,0,0
-0.044727,0,0
-0.044727,0,0
-0.056395,0,0
-0.044727,0,0
-0.044727,0,0
-0.056395,0,0
-0.056395,0,0
-0.044727,0,0
-0.044727,0,0
-0.044727,0,0
-0.044727,0,0
-0.064173,0,0
-0.056395,0,0
-0.044727,0,0
-0.044727,0,0
-0.056395,0,0
-0.044727,0,0
-0.044727,0,0
-0.064173,0,0
-0.044727,0,0
-0.056395,0,0
-0.075841,0,0
-0.044727,0,0
-0.044727,0,0
-0.044727,0,0
-0.044727,0,0
-0.044727,0,0
-0.064173,0,0
-0.044727,0,0
-0.056395,0,0
-0.064173,0,0
-0.044727,0,0
-0.056395,0,0
-0.064173,0,0
-0.044727,0,0
-0.044727,0,0
-0.056395,0,0
-0.044727,0,0
-0.044727,0,0
-0.056395,0,0
-0.056395,0,0
-0.044727,0,0
-0.056395,0,0
-0.064173,0,0
-0.056395,0,0
-0.044727,0,0
-0.044727,0,0
-0.044727,0,0
-0.044727,0,0
-0.044727,0,0
-0.044727,0,0
-0.044727,0,0
-0.044727,0,0
-0.056395,0,0
-0.044727,0,0
-0.056395,0,0
-0.044727,0,0
-0.064173,0,0
-0.044727,0,0
-0.056395,0,0
-0.064173,0,0
-0.056395,0,0
-0.044727,0,0
-0.044727,0,0
-0.056395,0,0
-0.056395,0,0
-0.056395,0,0
-0.056395,0,0
-0.056395,0,0
-0.064173,0,0
-0.064173,0,0
-0.056395,0,0
-0.064173,0,0
-0.064173,0,0
-0.036948,0,0
-0.056395,0,0
-0.056395,0,0
-0.056395,0,0
-0.064173,0,0
-0.044727,0,0
-0.064173,0,0
-0.056395,0,0
-0.044727,0,0
-0.056395,0,0
-0.064173,0,0
-0.056395,0,0
-0.044727,0,0
-0.044727,0,0
-0.044727,0,0
-0.044727,0,0
-0.044727,0,0
-0.044727,0,0
-0.056395,0,0
-0.056395,0,0
-0.044727,0,0
-0.056395,0,0
-0.056395,0,0
-0.044727,0,0
-0.056395,0,0
-0.056395,0,0
-0.044727,0,0
-0.044727,0,0
-0.044727,0,0
-0.044727,0,0
-0.044727,0,0
-0.044727,0,0
-0.044727,0,0
-0.056395,0,0
-0.044727,0,0
-0.044727,0,0
-0.044727,0,0
-0.056395,0,0
-0.044727,0,0
-0.056395,0,0
-0.044727,0,0
-0.044727,0,0
-0.044727,0,0
-0.056395,0,0
