dokumanlar/LVT/Armes 5000 A pano/1600 A Şalter Akım Ayarı ch2.csv

#CLOCK=0.200000000
#SIZE=1000
#PROBE=0
#VOLTDIV=7
-0.044727,0,0
-0.064173,0,0
-0.056395,0,0
-0.044727,0,0
-0.044727,0,0
-0.056395,0,0
-0.044727,0,0
-0.056395,0,0
-0.044727,0,0
-0.064173,0,0
-0.044727,0,0
-0.056395,0,0
-0.056395,0,0
-0.064173,0,0
-0.056395,0,0
-0.056395,0,0
-0.056395,0,0
-0.044727,0,0
-0.044727,0,0
-0.064173,0,0
-0.044727,0,0
-0.044727,0,0
-0.044727,0,0
-0.056395,0,0
-0.044727,0,0
-0.056395,0,0
-0.064173,0,0
-0.056395,0,0
-0.044727,0,0
-0.064173,0,0
-0.044727,0,0
-0.056395,0,0
-0.044727,0,0
-0.044727,0,0
-0.056395,0,0
-0.044727,0,0
-0.056395,0,0
-0.056395,0,0
-0.056395,0,0
-0.056395,0,0
-0.056395,0,0
-0.044727,0,0
-0.036948,0,0
-0.044727,0,0
-0.044727,0,0
-0.044727,0,0
-0.056395,0,0
-0.056395,0,0
-0.064173,0,0
-0.056395,0,0
-0.064173,0,0
-0.044727,0,0
-0.064173,0,0
-0.056395,0,0
-0.064173,0,0
-0.044727,0,0
-0.064173,0,0
-0.044727,0,0
-0.044727,0,0
-0.044727,0,0
-0.056395,0,0
-0.064173,0,0
-0.044727,0,0
-0.044727,0,0
-0.056395,0,0
-0.044727,0,0
-0.056395,0,0
-0.056395,0,0
-0.056395,0,0
-0.044727,0,0
-0.056395,0,0
-0.056395,0,0
-0.044727,0,0
-0.064173,0,0
-0.056395,0,0
-0.064173,0,0
-0.056395,0,0
-0.064173,0,0
-0.056395,0,0
-0.056395,0,0
-0.064173,0,0
-0.056395,0,0
-0.064173,0,0
-0.044727,0,0
-0.056395,0,0
-0.056395,0,0
-0.056395,0,0
-0.056395,0,0
-0.056395,0,0
-0.056395,0,0
-0.064173,0,0
-0.056395,0,0
-0.056395,0,0
-0.056395,0,0
-0.056395,0,0
-0.044727,0,0
-0.044727,0,0
-0.056395,0,0
-0.056395,0,0
-0.044727,0,0
-0.056395,0,0
-0.044727,0,0
-0.064173,0,0
-0.056395,0,0
-0.056395,0,0
-0.044727,0,0
-0.064173,0,0
-0.044727,0,0
-0.056395,0,0
-0.044727,0,0
-0.064173,0,0
-0.044727,0,0
-0.064173,0,0
-0.044727,0,0
-0.044727,0,0
-0.044727,0,0
-0.036948,0,0
-0.036948,0,0
-0.056395,0,0
-0.056395,0,0
-0.056395,0,0
-0.044727,0,0
-0.044727,0,0
-0.064173,0,0
-0.044727,0,0
-0.064173,0,0
-0.056395,0,0
-0.036948,0,0
-0.056395,0,0
-0.044727,0,0
-0.056395,0,0
-0.044727,0,0
-0.056395,0,0
-0.056395,0,0
-0.044727,0,0
-0.044727,0,0
-0.056395,0,0
-0.056395,0,0
-0.056395,0,0
-0.044727,0,0
-0.056395,0,0
-0.044727,0,0
-0.056395,0,0
-0.056395,0,0
-0.056395,0,0
-0.056395,0,0
-0.044727,0,0
-0.083620,0,0
-0.056395,0,0
-0.056395,0,0
-0.056395,0,0
-0.056395,0,0
-0.044727,0,0
-0.056395,0,0
-0.056395,0,0
-0.056395,0,0
-0.064173,0,0
-0.056395,0,0
-0.056395,0,0
-0.036948,0,0
-0.044727,0,0
-0.044727,0,0
-0.064173,0,0
-0.044727,0,0
-0.056395,0,0
-0.044727,0,0
-0.056395,0,0
-0.056395,0,0
-0.056395,0,0
-0.044727,0,0
-0.056395,0,0
-0.064173,0,0
-0.056395,0,0
-0.044727,0,0
-0.056395,0,0
-0.056395,0,0
-0.056395,0,0
-0.044727,0,0
-0.044727,0,0
-0.064173,0,0
-0.056395,0,0
-0.056395,0,0
-0.064173,0,0
-0.044727,0,0
-0.056395,0,0
-0.056395,0,0
-0.056395,0,0
-0.064173,0,0
-0.056395,0,0
-0.056395,0,0
-0.044727,0,0
-0.056395,0,0
-0.044727,0,0
-0.056395,0,0
-0.044727,0,0
-0.056395,0,0
-0.044727,0,0
-0.056395,0,0
-0.044727,0,0
-0.056395,0,0
-0.044727,0,0
-0.044727,0,0
-0.064173,0,0
-0.056395,0,0
-0.103066,0,0
-0.200298,0,0
-0.153627,0,0
-0.005834,0,0
0.184741,0,0
0.340313,0,0
0.390874,0,0
0.320866,0,0
0.145848,0,0
-0.044727,0,0
-0.219745,0,0
-0.309199,0,0
-0.239191,0,0
-0.083620,0,0
0.106955,0,0
0.262527,0,0
0.332534,0,0
0.243081,0,0
0.087509,0,0
-0.103066,0,0
-0.258638,0,0
-0.328645,0,0
-0.289752,0,0
-0.114734,0,0
0.068063,0,0
0.223634,0,0
0.301420,0,0
0.235302,0,0
0.079730,0,0
-0.141959,0,0
-0.289752,0,0
-0.367538,0,0
-0.309199,0,0
-0.122513,0,0
0.068063,0,0
0.223634,0,0
0.274195,0,0
0.204188,0,0
0.048616,0,0
-0.161406,0,0
-0.297531,0,0
-0.375316,0,0
-0.309199,0,0
-0.141959,0,0
0.068063,0,0
0.204188,0,0
0.281973,0,0
0.215856,0,0
0.021391,0,0
-0.161406,0,0
-0.180852,0,0
-0.141959,0,0
-0.064173,0,0
-0.044727,0,0
-0.044727,0,0
-0.044727,0,0
-0.044727,0,0
-0.044727,0,0
-0.044727,0,0
-0.064173,0,0
-0.056395,0,0
-0.056395,0,0
-0.056395,0,0
-0.056395,0,0
-0.056395,0,0
-0.064173,0,0
-0.056395,0,0
-0.056395,0,0
-0.056395,0,0
-0.056395,0,0
-0.044727,0,0
-0.064173,0,0
-0.064173,0,0
-0.056395,0,0
-0.056395,0,0
-0.056395,0,0
-0.064173,0,0
-0.056395,0,0
-0.056395,0,0
-0.056395,0,0
-0.056395,0,0
-0.056395,0,0
-0.056395,0,0
-0.064173,0,0
-0.056395,0,0
-0.064173,0,0
-0.044727,0,0
-0.056395,0,0
-0.056395,0,0
-0.064173,0,0
-0.056395,0,0
-0.056395,0,0
-0.075841,0,0
-0.064173,0,0
-0.056395,0,0
-0.056395,0,0
-0.044727,0,0
-0.056395,0,0
-0.056395,0,0
-0.075841,0,0
-0.064173,0,0
-0.056395,0,0
-0.056395,0,0
-0.056395,0,0
-0.075841,0,0
-0.064173,0,0
-0.064173,0,0
-0.056395,0,0
-0.056395,0,0
-0.056395,0,0
-0.044727,0,0
-0.056395,0,0
-0.064173,0,0
-0.075841,0,0
-0.056395,0,0
-0.056395,0,0
-0.056395,0,0
-0.056395,0,0
-0.056395,0,0
-0.056395,0,0
-0.056395,0,0
-0.056395,0,0
-0.056395,0,0
-0.056395,0,0
-0.056395,0,0
-0.044727,0,0
-0.075841,0,0
-0.056395,0,0
-0.056395,0,0
-0.075841,0,0
-0.056395,0,0
-0.056395,0,0
-0.075841,0,0
-0.064173,0,0
-0.044727,0,0
-0.075841,0,0
-0.056395,0,0
-0.056395,0,0
-0.075841,0,0
-0.064173,0,0
-0.044727,0,0
-0.044727,0,0
-0.064173,0,0
-0.064173,0,0
-0.075841,0,0
-0.064173,0,0
-0.056395,0,0
-0.056395,0,0
-0.056395,0,0
-0.064173,0,0
-0.064173,0,0
-0.056395,0,0
-0.064173,0,0
-0.056395,0,0
-0.056395,0,0
-0.056395,0,0
-0.064173,0,0
-0.056395,0,0
-0.056395,0,0
-0.044727,0,0
-0.056395,0,0
-0.044727,0,0
-0.056395,0,0
-0.064173,0,0
-0.044727,0,0
-0.056395,0,0
-0.056395,0,0
-0.064173,0,0
-0.056395,0,0
-0.044727,0,0
-0.044727,0,0
-0.056395,0,0
-0.044727,0,0
-0.075841,0,0
-0.064173,0,0
-0.056395,0,0
-0.044727,0,0
-0.056395,0,0
-0.056395,0,0
-0.064173,0,0
-0.044727,0,0
-0.056395,0,0
-0.056395,0,0
-0.075841,0,0
-0.064173,0,0
-0.056395,0,0
-0.075841,0,0
-0.056395,0,0
-0.075841,0,0
-0.056395,0,0
-0.044727,0,0
-0.075841,0,0
-0.056395,0,0
-0.044727,0,0
-0.064173,0,0
-0.056395,0,0
-0.056395,0,0
-0.075841,0,0
-0.044727,0,0
-0.056395,0,0
-0.083620,0,0
-0.056395,0,0
-0.064173,0,0
-0.064173,0,0
-0.064173,0,0
-0.064173,0,0
-0.044727,0,0
-0.044727,0,0
-0.044727,0,0
-0.056395,0,0
-0.044727,0,0
-0.044727,0,0
-0.056395,0,0
-0.044727,0,0
-0.075841,0,0
-0.056395,0,0
-0.044727,0,0
-0.056395,0,0
-0.064173,0,0
-0.056395,0,0
-0.056395,0,0
-0.064173,0,0
-0.064173,0,0
-0.056395,0,0
-0.056395,0,0
-0.064173,0,0
-0.064173,0,0
-0.056395,0,0
-0.064173,0,0
-0.064173,0,0
-0.056395,0,0
-0.064173,0,0
-0.056395,0,0
-0.056395,0,0
-0.056395,0,0
-0.064173,0,0
-0.064173,0,0
-0.064173,0,0
-0.064173,0,0
-0.064173,0,0
-0.056395,0,0
-0.064173,0,0
-0.064173,0,0
-0.056395,0,0
-0.064173,0,0
-0.056395,0,0
-0.056395,0,0
-0.056395,0,0
-0.064173,0,0
-0.056395,0,0
-0.064173,0,0
-0.075841,0,0
-0.064173,0,0
-0.056395,0,0
-0.056395,0,0
-0.056395,0,0
-0.056395,0,0
-0.056395,0,0
-0.064173,0,0
-0.056395,0,0
-0.056395,0,0
-0.064173,0,0
-0.064173,0,0
-0.064173,0,0
-0.064173,0,0
-0.064173,0,0
-0.044727,0,0
-0.064173,0,0
-0.064173,0,0
-0.056395,0,0
-0.064173,0,0
-0.064173,0,0
-0.056395,0,0
-0.064173,0,0
-0.064173,0,0
-0.056395,0,0
-0.064173,0,0
-0.056395,0,0
-0.056395,0,0
-0.056395,0,0
-0.056395,0,0
-0.056395,0,0
-0.056395,0,0
-0.056395,0,0
-0.044727,0,0
-0.056395,0,0
-0.056395,0,0
-0.056395,0,0
-0.064173,0,0
-0.056395,0,0
-0.056395,0,0
-0.075841,0,0
-0.056395,0,0
-0.056395,0,0
-0.075841,0,0
-0.056395,0,0
-0.056395,0,0
-0.064173,0,0
-0.044727,0,0
-0.064173,0,0
-0.056395,0,0
-0.064173,0,0
-0.056395,0,0
-0.044727,0,0
-0.064173,0,0
-0.064173,0,0
-0.056395,0,0
-0.064173,0,0
-0.056395,0,0
-0.056395,0,0
-0.075841,0,0
-0.064173,0,0
-0.064173,0,0
-0.075841,0,0
-0.056395,0,0
-0.056395,0,0
-0.056395,0,0
-0.056395,0,0
-0.056395,0,0
-0.056395,0,0
-0.075841,0,0
-0.056395,0,0
-0.056395,0,0
-0.044727,0,0
-0.056395,0,0
-0.064173,0,0
-0.056395,0,0
-0.056395,0,0
-0.056395,0,0
-0.075841,0,0
-0.064173,0,0
-0.056395,0,0
-0.056395,0,0
-0.064173,0,0
-0.056395,0,0
-0.056395,0,0
-0.056395,0,0
-0.056395,0,0
-0.044727,0,0
-0.064173,0,0
-0.056395,0,0
-0.056395,0,0
-0.075841,0,0
-0.064173,0,0
-0.056395,0,0
-0.064173,0,0
-0.064173,0,0
-0.064173,0,0
-0.064173,0,0
-0.064173,0,0
-0.056395,0,0
-0.064173,0,0
-0.056395,0,0
-0.064173,0,0
-0.064173,0,0
-0.064173,0,0
-0.056395,0,0
-0.056395,0,0
-0.064173,0,0
-0.044727,0,0
-0.064173,0,0
-0.064173,0,0
-0.064173,0,0
-0.064173,0,0
-0.056395,0,0
-0.056395,0,0
-0.064173,0,0
-0.064173,0,0
-0.056395,0,0
-0.064173,0,0
-0.056395,0,0
-0.056395,0,0
-0.056395,0,0
-0.075841,0,0
-0.064173,0,0
-0.064173,0,0
-0.064173,0,0
-0.064173,0,0
-0.056395,0,0
-0.056395,0,0
-0.056395,0,0
-0.056395,0,0
-0.056395,0,0
-0.064173,0,0
-0.044727,0,0
-0.044727,0,0
-0.056395,0,0
-0.056395,0,0
-0.075841,0,0
-0.056395,0,0
-0.044727,0,0
-0.075841,0,0
-0.044727,0,0
-0.044727,0,0
-0.064173,0,0
-0.044727,0,0
-0.056395,0,0
-0.075841,0,0
-0.056395,0,0
-0.044727,0,0
-0.064173,0,0
-0.056395,0,0
-0.056395,0,0
-0.064173,0,0
-0.056395,0,0
-0.056395,0,0
-0.064173,0,0
-0.056395,0,0
-0.056395,0,0
-0.075841,0,0
-0.044727,0,0
-0.044727,0,0
-0.064173,0,0
-0.044727,0,0
-0.056395,0,0
-0.056395,0,0
-0.075841,0,0
-0.044727,0,0
-0.056395,0,0
-0.064173,0,0
-0.056395,0,0
-0.056395,0,0
-0.064173,0,0
-0.044727,0,0
-0.064173,0,0
-0.064173,0,0
-0.044727,0,0
-0.064173,0,0
-0.056395,0,0
-0.064173,0,0
-0.064173,0,0
-0.064173,0,0
-0.075841,0,0
-0.064173,0,0
-0.044727,0,0
-0.056395,0,0
-0.064173,0,0
-0.064173,0,0
-0.064173,0,0
-0.056395,0,0
-0.056395,0,0
-0.056395,0,0
-0.056395,0,0
-0.064173,0,0
-0.056395,0,0
-0.056395,0,0
-0.064173,0,0
-0.064173,0,0
-0.044727,0,0
-0.056395,0,0
-0.064173,0,0
-0.056395,0,0
-0.056395,0,0
-0.056395,0,0
-0.064173,0,0
-0.056395,0,0
-0.064173,0,0
-0.044727,0,0
-0.056395,0,0
-0.056395,0,0
-0.064173,0,0
-0.056395,0,0
-0.064173,0,0
-0.064173,0,0
-0.044727,0,0
-0.064173,0,0
-0.064173,0,0
-0.056395,0,0
-0.064173,0,0
-0.064173,0,0
-0.056395,0,0
-0.044727,0,0
-0.056395,0,0
-0.044727,0,0
-0.056395,0,0
-0.064173,0,0
-0.064173,0,0
-0.056395,0,0
-0.064173,0,0
-0.064173,0,0
-0.056395,0,0
-0.056395,0,0
-0.064173,0,0
-0.044727,0,0
-0.064173,0,0
-0.064173,0,0
-0.056395,0,0
-0.056395,0,0
-0.044727,0,0
-0.056395,0,0
-0.056395,0,0
-0.064173,0,0
-0.056395,0,0
-0.056395,0,0
-0.056395,0,0
-0.056395,0,0
-0.064173,0,0
-0.064173,0,0
-0.056395,0,0
-0.056395,0,0
-0.064173,0,0
-0.056395,0,0
-0.056395,0,0
-0.075841,0,0
-0.064173,0,0
-0.056395,0,0
-0.075841,0,0
-0.064173,0,0
-0.056395,0,0
-0.064173,0,0
-0.064173,0,0
-0.056395,0,0
-0.075841,0,0
-0.064173,0,0
-0.044727,0,0
-0.064173,0,0
-0.064173,0,0
-0.056395,0,0
-0.044727,0,0
-0.056395,0,0
-0.075841,0,0
-0.064173,0,0
-0.056395,0,0
-0.056395,0,0
-0.064173,0,0
-0.064173,0,0
-0.056395,0,0
-0.064173,0,0
-0.056395,0,0
-0.056395,0,0
-0.056395,0,0
-0.044727,0,0
-0.056395,0,0
-0.064173,0,0
-0.075841,0,0
-0.064173,0,0
-0.056395,0,0
-0.056395,0,0
-0.056395,0,0
-0.056395,0,0
-0.064173,0,0
-0.056395,0,0
-0.056395,0,0
-0.056395,0,0
-0.064173,0,0
-0.064173,0,0
-0.056395,0,0
-0.064173,0,0
-0.056395,0,0
-0.064173,0,0
-0.064173,0,0
-0.044727,0,0
-0.044727,0,0
-0.056395,0,0
-0.044727,0,0
-0.056395,0,0
-0.044727,0,0
-0.044727,0,0
-0.056395,0,0
-0.056395,0,0
-0.044727,0,0
-0.056395,0,0
-0.056395,0,0
-0.044727,0,0
-0.056395,0,0
-0.064173,0,0
-0.075841,0,0
-0.056395,0,0
-0.044727,0,0
-0.044727,0,0
-0.044727,0,0
-0.056395,0,0
-0.044727,0,0
-0.056395,0,0
-0.056395,0,0
-0.044727,0,0
-0.056395,0,0
-0.056395,0,0
-0.044727,0,0
-0.083620,0,0
-0.056395,0,0
-0.044727,0,0
-0.064173,0,0
-0.056395,0,0
-0.075841,0,0
-0.044727,0,0
-0.056395,0,0
-0.056395,0,0
-0.056395,0,0
-0.064173,0,0
-0.044727,0,0
-0.056395,0,0
-0.064173,0,0
-0.056395,0,0
-0.056395,0,0
-0.075841,0,0
-0.056395,0,0
-0.064173,0,0
-0.064173,0,0
-0.044727,0,0
-0.056395,0,0
-0.056395,0,0
-0.064173,0,0
-0.056395,0,0
-0.056395,0,0
-0.044727,0,0
-0.056395,0,0
-0.056395,0,0
-0.064173,0,0
-0.064173,0,0
-0.056395,0,0
-0.075841,0,0
-0.064173,0,0
-0.056395,0,0
-0.056395,0,0
-0.044727,0,0
-0.064173,0,0
-0.044727,0,0
-0.056395,0,0
-0.064173,0,0
-0.044727,0,0
-0.056395,0,0
-0.056395,0,0
-0.056395,0,0
-0.056395,0,0
-0.064173,0,0
-0.044727,0,0
-0.044727,0,0
-0.056395,0,0
-0.056395,0,0
-0.064173,0,0
-0.056395,0,0
-0.056395,0,0
-0.056395,0,0
-0.064173,0,0
-0.044727,0,0
-0.056395,0,0
-0.064173,0,0
-0.056395,0,0
-0.044727,0,0
-0.056395,0,0
-0.064173,0,0
-0.044727,0,0
-0.056395,0,0
-0.056395,0,0
-0.064173,0,0
-0.056395,0,0
-0.056395,0,0
-0.056395,0,0
-0.056395,0,0
-0.075841,0,0
-0.064173,0,0
-0.056395,0,0
-0.056395,0,0
-0.036948,0,0
-0.064173,0,0
-0.056395,0,0
-0.056395,0,0
-0.064173,0,0
-0.064173,0,0
-0.064173,0,0
-0.064173,0,0
-0.056395,0,0
-0.056395,0,0
-0.064173,0,0
-0.056395,0,0
-0.056395,0,0
-0.044727,0,0
-0.056395,0,0
-0.056395,0,0
-0.044727,0,0
-0.044727,0,0
-0.064173,0,0
-0.064173,0,0
-0.056395,0,0
-0.064173,0,0
-0.056395,0,0
-0.056395,0,0
-0.044727,0,0
-0.056395,0,0
-0.083620,0,0
-0.044727,0,0
-0.056395,0,0
-0.056395,0,0
-0.044727,0,0
-0.064173,0,0
-0.056395,0,0
-0.044727,0,0
-0.075841,0,0
-0.044727,0,0
-0.044727,0,0
-0.064173,0,0
-0.056395,0,0
-0.056395,0,0
-0.064173,0,0
-0.044727,0,0
-0.056395,0,0
-0.056395,0,0
-0.064173,0,0
-0.056395,0,0
-0.064173,0,0
-0.056395,0,0
-0.056395,0,0
-0.056395,0,0
-0.075841,0,0
-0.044727,0,0
-0.056395,0,0
-0.064173,0,0
-0.044727,0,0
-0.056395,0,0
-0.064173,0,0
-0.064173,0,0
-0.056395,0,0
-0.075841,0,0
-0.056395,0,0
-0.064173,0,0
-0.044727,0,0
-0.044727,0,0
-0.075841,0,0
-0.056395,0,0
-0.044727,0,0
-0.044727,0,0
-0.044727,0,0
-0.064173,0,0
-0.064173,0,0
-0.056395,0,0
-0.064173,0,0
-0.044727,0,0
-0.064173,0,0
-0.056395,0,0
-0.056395,0,0
-0.075841,0,0
-0.056395,0,0
-0.056395,0,0
-0.044727,0,0
-0.056395,0,0
-0.056395,0,0
-0.064173,0,0
-0.056395,0,0
-0.044727,0,0
-0.056395,0,0
-0.064173,0,0
-0.044727,0,0
-0.056395,0,0
-0.064173,0,0
-0.044727,0,0
-0.044727,0,0
-0.056395,0,0
-0.056395,0,0
-0.056395,0,0
-0.056395,0,0
-0.056395,0,0
-0.056395,0,0
-0.056395,0,0
-0.056395,0,0
-0.056395,0,0
-0.056395,0,0
-0.044727,0,0
-0.056395,0,0
-0.056395,0,0
-0.056395,0,0
-0.056395,0,0
-0.056395,0,0
-0.056395,0,0
-0.056395,0,0
-0.044727,0,0
-0.056395,0,0
-0.056395,0,0
-0.056395,0,0
-0.056395,0,0
-0.056395,0,0
-0.056395,0,0
-0.064173,0,0
-0.064173,0,0
-0.056395,0,0
-0.056395,0,0
-0.075841,0,0
-0.064173,0,0
-0.056395,0,0
-0.056395,0,0
-0.056395,0,0
-0.044727,0,0
-0.056395,0,0
-0.056395,0,0
-0.056395,0,0
-0.056395,0,0
-0.064173,0,0
-0.064173,0,0
-0.056395,0,0
-0.064173,0,0
-0.075841,0,0
-0.056395,0,0
-0.075841,0,0
-0.044727,0,0
-0.056395,0,0
-0.056395,0,0
