dokumanlar/LVT/Armes 5000 A pano/4000 a şalter akım ayarı ch3.csv

#CLOCK=0.200000000
#SIZE=1000
#PROBE=0
#VOLTDIV=7
-0.036948,0,0
-0.044727,0,0
-0.036948,0,0
-0.044727,0,0
-0.036948,0,0
-0.044727,0,0
-0.025280,0,0
-0.036948,0,0
-0.036948,0,0
-0.036948,0,0
-0.044727,0,0
-0.044727,0,0
-0.036948,0,0
-0.036948,0,0
-0.025280,0,0
-0.044727,0,0
-0.044727,0,0
-0.036948,0,0
-0.025280,0,0
-0.036948,0,0
-0.044727,0,0
-0.036948,0,0
-0.044727,0,0
-0.036948,0,0
-0.056395,0,0
-0.044727,0,0
-0.036948,0,0
-0.025280,0,0
-0.025280,0,0
-0.044727,0,0
-0.056395,0,0
-0.025280,0,0
-0.036948,0,0
-0.044727,0,0
-0.036948,0,0
-0.036948,0,0
-0.036948,0,0
-0.044727,0,0
-0.036948,0,0
-0.044727,0,0
-0.025280,0,0
-0.044727,0,0
-0.036948,0,0
-0.044727,0,0
-0.025280,0,0
-0.044727,0,0
-0.036948,0,0
-0.036948,0,0
-0.036948,0,0
-0.025280,0,0
-0.036948,0,0
-0.036948,0,0
-0.025280,0,0
-0.044727,0,0
-0.036948,0,0
-0.036948,0,0
-0.025280,0,0
-0.044727,0,0
-0.044727,0,0
-0.036948,0,0
-0.025280,0,0
-0.036948,0,0
-0.044727,0,0
-0.044727,0,0
-0.036948,0,0
-0.044727,0,0
-0.036948,0,0
-0.036948,0,0
-0.036948,0,0
-0.044727,0,0
-0.044727,0,0
-0.056395,0,0
-0.036948,0,0
-0.025280,0,0
-0.036948,0,0
-0.025280,0,0
-0.036948,0,0
-0.036948,0,0
-0.025280,0,0
-0.036948,0,0
-0.036948,0,0
-0.025280,0,0
-0.025280,0,0
-0.036948,0,0
-0.036948,0,0
-0.025280,0,0
-0.025280,0,0
-0.036948,0,0
-0.025280,0,0
-0.036948,0,0
-0.044727,0,0
-0.036948,0,0
-0.044727,0,0
-0.036948,0,0
-0.044727,0,0
-0.044727,0,0
-0.044727,0,0
-0.025280,0,0
-0.044727,0,0
-0.036948,0,0
-0.044727,0,0
-0.025280,0,0
-0.044727,0,0
-0.044727,0,0
-0.036948,0,0
-0.025280,0,0
-0.025280,0,0
-0.044727,0,0
-0.025280,0,0
-0.025280,0,0
-0.025280,0,0
-0.044727,0,0
-0.025280,0,0
-0.036948,0,0
-0.025280,0,0
-0.044727,0,0
-0.036948,0,0
-0.036948,0,0
-0.025280,0,0
-0.025280,0,0
-0.036948,0,0
-0.036948,0,0
-0.056395,0,0
-0.036948,0,0
-0.036948,0,0
-0.036948,0,0
-0.025280,0,0
-0.025280,0,0
-0.036948,0,0
-0.044727,0,0
-0.036948,0,0
-0.044727,0,0
-0.036948,0,0
-0.036948,0,0
-0.036948,0,0
-0.044727,0,0
-0.036948,0,0
-0.036948,0,0
-0.025280,0,0
-0.044727,0,0
-0.044727,0,0
-0.036948,0,0
-0.017502,0,0
-0.025280,0,0
-0.036948,0,0
-0.036948,0,0
-0.025280,0,0
-0.044727,0,0
-0.036948,0,0
-0.036948,0,0
-0.025280,0,0
-0.044727,0,0
-0.044727,0,0
-0.036948,0,0
-0.036948,0,0
-0.025280,0,0
-0.044727,0,0
-0.036948,0,0
-0.036948,0,0
-0.025280,0,0
-0.036948,0,0
-0.025280,0,0
-0.044727,0,0
-0.025280,0,0
-0.036948,0,0
-0.044727,0,0
-0.036948,0,0
-0.044727,0,0
-0.036948,0,0
-0.036948,0,0
-0.036948,0,0
-0.036948,0,0
-0.044727,0,0
-0.025280,0,0
-0.044727,0,0
-0.036948,0,0
-0.036948,0,0
-0.025280,0,0
-0.025280,0,0
-0.036948,0,0
-0.036948,0,0
-0.025280,0,0
-0.025280,0,0
-0.036948,0,0
-0.036948,0,0
-0.025280,0,0
-0.044727,0,0
-0.036948,0,0
-0.044727,0,0
-0.036948,0,0
-0.056395,0,0
-0.044727,0,0
-0.036948,0,0
-0.025280,0,0
-0.036948,0,0
-0.044727,0,0
-0.044727,0,0
-0.036948,0,0
-0.025280,0,0
-0.025280,0,0
-0.036948,0,0
-0.036948,0,0
-0.083620,0,0
-0.250859,0,0
-0.394763,0,0
-0.445324,0,0
-0.336424,0,0
-0.134180,0,0
0.138070,0,0
0.313088,0,0
0.351981,0,0
0.262527,0,0
0.048616,0,0
-0.211966,0,0
-0.386984,0,0
-0.433656,0,0
-0.348091,0,0
-0.122513,0,0
0.126402,0,0
0.301420,0,0
0.332534,0,0
0.262527,0,0
0.040838,0,0
-0.200298,0,0
-0.375316,0,0
-0.425877,0,0
-0.348091,0,0
-0.134180,0,0
0.126402,0,0
0.281973,0,0
0.351981,0,0
0.262527,0,0
0.060284,0,0
-0.211966,0,0
-0.394763,0,0
-0.414209,0,0
-0.336424,0,0
-0.122513,0,0
0.126402,0,0
0.301420,0,0
0.332534,0,0
0.254748,0,0
0.060284,0,0
-0.192520,0,0
-0.386984,0,0
-0.433656,0,0
-0.309199,0,0
-0.114734,0,0
0.126402,0,0
0.301420,0,0
0.351981,0,0
0.235302,0,0
0.040838,0,0
-0.025280,0,0
-0.044727,0,0
-0.036948,0,0
-0.036948,0,0
-0.036948,0,0
-0.036948,0,0
-0.025280,0,0
-0.036948,0,0
-0.025280,0,0
-0.025280,0,0
-0.025280,0,0
-0.036948,0,0
-0.025280,0,0
-0.036948,0,0
-0.036948,0,0
-0.025280,0,0
-0.025280,0,0
-0.044727,0,0
-0.025280,0,0
-0.025280,0,0
-0.036948,0,0
-0.036948,0,0
-0.036948,0,0
-0.017502,0,0
-0.036948,0,0
-0.036948,0,0
-0.044727,0,0
-0.036948,0,0
-0.056395,0,0
-0.036948,0,0
-0.036948,0,0
-0.056395,0,0
-0.036948,0,0
-0.036948,0,0
-0.044727,0,0
-0.036948,0,0
-0.025280,0,0
-0.056395,0,0
-0.036948,0,0
-0.025280,0,0
-0.036948,0,0
-0.056395,0,0
-0.044727,0,0
-0.044727,0,0
-0.044727,0,0
-0.036948,0,0
-0.025280,0,0
-0.036948,0,0
-0.036948,0,0
-0.025280,0,0
-0.044727,0,0
-0.036948,0,0
-0.044727,0,0
-0.036948,0,0
-0.056395,0,0
-0.044727,0,0
-0.025280,0,0
-0.036948,0,0
-0.044727,0,0
-0.025280,0,0
-0.056395,0,0
-0.056395,0,0
-0.025280,0,0
-0.044727,0,0
-0.044727,0,0
-0.025280,0,0
-0.044727,0,0
-0.056395,0,0
-0.025280,0,0
-0.036948,0,0
-0.044727,0,0
-0.025280,0,0
-0.036948,0,0
-0.044727,0,0
-0.044727,0,0
-0.036948,0,0
-0.036948,0,0
-0.044727,0,0
-0.025280,0,0
-0.036948,0,0
-0.056395,0,0
-0.025280,0,0
-0.036948,0,0
-0.044727,0,0
-0.025280,0,0
-0.017502,0,0
-0.044727,0,0
-0.025280,0,0
-0.036948,0,0
-0.044727,0,0
-0.025280,0,0
-0.044727,0,0
-0.036948,0,0
-0.056395,0,0
-0.017502,0,0
-0.036948,0,0
-0.044727,0,0
-0.036948,0,0
-0.036948,0,0
-0.036948,0,0
-0.036948,0,0
-0.036948,0,0
-0.036948,0,0
-0.044727,0,0
-0.025280,0,0
-0.036948,0,0
-0.036948,0,0
-0.036948,0,0
-0.036948,0,0
-0.056395,0,0
-0.036948,0,0
-0.036948,0,0
-0.036948,0,0
-0.036948,0,0
-0.025280,0,0
-0.036948,0,0
-0.036948,0,0
-0.036948,0,0
-0.036948,0,0
-0.044727,0,0
-0.036948,0,0
-0.036948,0,0
-0.036948,0,0
-0.036948,0,0
-0.025280,0,0
-0.044727,0,0
-0.044727,0,0
-0.025280,0,0
-0.025280,0,0
-0.036948,0,0
-0.025280,0,0
-0.036948,0,0
-0.025280,0,0
-0.025280,0,0
-0.044727,0,0
-0.044727,0,0
-0.036948,0,0
-0.056395,0,0
-0.044727,0,0
-0.025280,0,0
-0.036948,0,0
-0.036948,0,0
-0.036948,0,0
-0.025280,0,0
-0.044727,0,0
-0.036948,0,0
-0.025280,0,0
-0.056395,0,0
-0.044727,0,0
-0.025280,0,0
-0.044727,0,0
-0.044727,0,0
-0.044727,0,0
-0.036948,0,0
-0.056395,0,0
-0.025280,0,0
-0.044727,0,0
-0.044727,0,0
-0.025280,0,0
-0.036948,0,0
-0.036948,0,0
-0.036948,0,0
-0.025280,0,0
-0.036948,0,0
-0.044727,0,0
-0.025280,0,0
-0.044727,0,0
-0.036948,0,0
-0.044727,0,0
-0.036948,0,0
-0.056395,0,0
-0.044727,0,0
-0.036948,0,0
-0.044727,0,0
-0.025280,0,0
-0.036948,0,0
-0.056395,0,0
-0.025280,0,0
-0.025280,0,0
-0.044727,0,0
-0.056395,0,0
-0.025280,0,0
-0.044727,0,0
-0.025280,0,0
-0.025280,0,0
-0.056395,0,0
-0.036948,0,0
-0.025280,0,0
-0.044727,0,0
-0.025280,0,0
-0.025280,0,0
-0.056395,0,0
-0.056395,0,0
-0.025280,0,0
-0.044727,0,0
-0.044727,0,0
-0.017502,0,0
-0.044727,0,0
-0.044727,0,0
-0.025280,0,0
-0.044727,0,0
-0.036948,0,0
-0.017502,0,0
-0.056395,0,0
-0.044727,0,0
-0.025280,0,0
-0.044727,0,0
-0.056395,0,0
-0.025280,0,0
-0.056395,0,0
-0.044727,0,0
-0.017502,0,0
-0.044727,0,0
-0.044727,0,0
-0.017502,0,0
-0.036948,0,0
-0.044727,0,0
-0.025280,0,0
-0.044727,0,0
-0.056395,0,0
-0.025280,0,0
-0.036948,0,0
-0.044727,0,0
-0.025280,0,0
-0.056395,0,0
-0.044727,0,0
-0.025280,0,0
-0.044727,0,0
-0.056395,0,0
-0.044727,0,0
-0.025280,0,0
-0.036948,0,0
-0.036948,0,0
-0.044727,0,0
-0.025280,0,0
-0.036948,0,0
-0.044727,0,0
-0.044727,0,0
-0.036948,0,0
-0.036948,0,0
-0.044727,0,0
-0.036948,0,0
-0.036948,0,0
-0.044727,0,0
-0.036948,0,0
-0.025280,0,0
-0.044727,0,0
-0.036948,0,0
-0.025280,0,0
-0.036948,0,0
-0.044727,0,0
-0.036948,0,0
-0.044727,0,0
-0.036948,0,0
-0.044727,0,0
-0.036948,0,0
-0.036948,0,0
-0.025280,0,0
-0.025280,0,0
-0.025280,0,0
-0.044727,0,0
-0.036948,0,0
-0.044727,0,0
-0.056395,0,0
-0.036948,0,0
-0.025280,0,0
-0.036948,0,0
-0.025280,0,0
-0.025280,0,0
-0.036948,0,0
-0.025280,0,0
-0.025280,0,0
-0.025280,0,0
-0.025280,0,0
-0.025280,0,0
-0.025280,0,0
-0.025280,0,0
-0.025280,0,0
-0.025280,0,0
-0.025280,0,0
-0.025280,0,0
-0.025280,0,0
-0.044727,0,0
-0.025280,0,0
-0.025280,0,0
-0.025280,0,0
-0.025280,0,0
-0.025280,0,0
-0.044727,0,0
-0.036948,0,0
-0.036948,0,0
-0.044727,0,0
-0.044727,0,0
-0.025280,0,0
-0.025280,0,0
-0.056395,0,0
-0.036948,0,0
-0.036948,0,0
-0.056395,0,0
-0.044727,0,0
-0.044727,0,0
-0.056395,0,0
-0.025280,0,0
-0.044727,0,0
-0.025280,0,0
-0.025280,0,0
-0.044727,0,0
-0.036948,0,0
-0.025280,0,0
-0.044727,0,0
-0.036948,0,0
-0.025280,0,0
-0.036948,0,0
-0.044727,0,0
-0.036948,0,0
-0.025280,0,0
-0.044727,0,0
-0.044727,0,0
-0.044727,0,0
-0.036948,0,0
-0.044727,0,0
-0.044727,0,0
-0.044727,0,0
-0.056395,0,0
-0.044727,0,0
-0.017502,0,0
-0.036948,0,0
-0.036948,0,0
-0.044727,0,0
-0.056395,0,0
-0.036948,0,0
-0.056395,0,0
-0.025280,0,0
-0.036948,0,0
-0.044727,0,0
-0.036948,0,0
-0.025280,0,0
-0.036948,0,0
-0.036948,0,0
-0.036948,0,0
-0.036948,0,0
-0.056395,0,0
-0.044727,0,0
-0.036948,0,0
-0.036948,0,0
-0.025280,0,0
-0.036948,0,0
-0.036948,0,0
-0.044727,0,0
-0.036948,0,0
-0.036948,0,0
-0.044727,0,0
-0.044727,0,0
-0.025280,0,0
-0.036948,0,0
-0.036948,0,0
-0.017502,0,0
-0.036948,0,0
-0.044727,0,0
-0.025280,0,0
-0.025280,0,0
-0.036948,0,0
-0.044727,0,0
-0.025280,0,0
-0.044727,0,0
-0.025280,0,0
-0.025280,0,0
-0.036948,0,0
-0.025280,0,0
-0.036948,0,0
-0.025280,0,0
-0.036948,0,0
-0.036948,0,0
-0.036948,0,0
-0.036948,0,0
-0.025280,0,0
-0.025280,0,0
-0.036948,0,0
-0.036948,0,0
-0.036948,0,0
-0.025280,0,0
-0.025280,0,0
-0.036948,0,0
-0.036948,0,0
-0.025280,0,0
-0.036948,0,0
-0.025280,0,0
-0.044727,0,0
-0.036948,0,0
-0.036948,0,0
-0.025280,0,0
-0.025280,0,0
-0.044727,0,0
-0.036948,0,0
-0.025280,0,0
-0.044727,0,0
-0.036948,0,0
-0.044727,0,0
-0.036948,0,0
-0.056395,0,0
-0.025280,0,0
-0.044727,0,0
-0.044727,0,0
-0.044727,0,0
-0.025280,0,0
-0.044727,0,0
-0.044727,0,0
-0.025280,0,0
-0.036948,0,0
-0.044727,0,0
-0.044727,0,0
-0.044727,0,0
-0.044727,0,0
-0.056395,0,0
-0.025280,0,0
-0.044727,0,0
-0.044727,0,0
-0.025280,0,0
-0.044727,0,0
-0.064173,0,0
-0.025280,0,0
-0.036948,0,0
-0.044727,0,0
-0.025280,0,0
-0.036948,0,0
-0.036948,0,0
-0.036948,0,0
-0.036948,0,0
-0.025280,0,0
-0.036948,0,0
-0.025280,0,0
-0.025280,0,0
-0.025280,0,0
-0.044727,0,0
-0.056395,0,0
-0.025280,0,0
-0.036948,0,0
-0.044727,0,0
-0.036948,0,0
-0.036948,0,0
-0.025280,0,0
-0.025280,0,0
-0.036948,0,0
-0.036948,0,0
-0.036948,0,0
-0.036948,0,0
-0.044727,0,0
-0.044727,0,0
-0.025280,0,0
-0.056395,0,0
-0.025280,0,0
-0.025280,0,0
-0.036948,0,0
-0.036948,0,0
-0.025280,0,0
-0.056395,0,0
-0.036948,0,0
-0.025280,0,0
-0.036948,0,0
-0.044727,0,0
-0.044727,0,0
-0.044727,0,0
-0.036948,0,0
-0.025280,0,0
-0.025280,0,0
-0.056395,0,0
-0.025280,0,0
-0.036948,0,0
-0.044727,0,0
-0.036948,0,0
-0.044727,0,0
-0.036948,0,0
-0.056395,0,0
-0.044727,0,0
-0.025280,0,0
-0.044727,0,0
-0.025280,0,0
-0.025280,0,0
-0.044727,0,0
-0.044727,0,0
-0.025280,0,0
-0.036948,0,0
-0.036948,0,0
-0.025280,0,0
-0.017502,0,0
-0.036948,0,0
-0.044727,0,0
-0.044727,0,0
-0.036948,0,0
-0.036948,0,0
-0.044727,0,0
-0.025280,0,0
-0.036948,0,0
-0.044727,0,0
-0.025280,0,0
-0.017502,0,0
-0.036948,0,0
-0.036948,0,0
-0.036948,0,0
-0.036948,0,0
-0.036948,0,0
-0.036948,0,0
-0.036948,0,0
-0.056395,0,0
-0.025280,0,0
-0.025280,0,0
-0.036948,0,0
-0.025280,0,0
-0.025280,0,0
-0.036948,0,0
-0.044727,0,0
-0.025280,0,0
-0.036948,0,0
-0.036948,0,0
-0.036948,0,0
-0.025280,0,0
-0.036948,0,0
-0.025280,0,0
-0.025280,0,0
-0.044727,0,0
-0.044727,0,0
-0.025280,0,0
-0.036948,0,0
-0.056395,0,0
-0.025280,0,0
-0.036948,0,0
-0.044727,0,0
-0.025280,0,0
-0.044727,0,0
-0.044727,0,0
-0.025280,0,0
-0.017502,0,0
-0.044727,0,0
-0.036948,0,0
-0.025280,0,0
-0.044727,0,0
-0.036948,0,0
-0.044727,0,0
-0.044727,0,0
-0.044727,0,0
-0.025280,0,0
-0.025280,0,0
-0.044727,0,0
-0.036948,0,0
-0.044727,0,0
-0.044727,0,0
-0.044727,0,0
-0.056395,0,0
-0.025280,0,0
-0.044727,0,0
-0.044727,0,0
-0.017502,0,0
-0.044727,0,0
-0.036948,0,0
-0.044727,0,0
-0.036948,0,0
-0.044727,0,0
-0.025280,0,0
-0.044727,0,0
-0.044727,0,0
-0.025280,0,0
-0.044727,0,0
-0.025280,0,0
-0.025280,0,0
-0.044727,0,0
-0.036948,0,0
-0.025280,0,0
-0.036948,0,0
-0.056395,0,0
-0.017502,0,0
-0.056395,0,0
-0.044727,0,0
-0.025280,0,0
-0.036948,0,0
-0.044727,0,0
-0.025280,0,0
-0.017502,0,0
-0.036948,0,0
-0.025280,0,0
-0.036948,0,0
-0.036948,0,0
-0.044727,0,0
-0.044727,0,0
-0.025280,0,0
-0.044727,0,0
-0.025280,0,0
-0.036948,0,0
-0.044727,0,0
-0.044727,0,0
-0.044727,0,0
-0.025280,0,0
-0.044727,0,0
-0.025280,0,0
-0.036948,0,0
-0.036948,0,0
-0.044727,0,0
-0.036948,0,0
-0.036948,0,0
-0.056395,0,0
-0.036948,0,0
-0.036948,0,0
-0.044727,0,0
-0.025280,0,0
-0.036948,0,0
-0.025280,0,0
-0.036948,0,0
-0.036948,0,0
-0.036948,0,0
-0.036948,0,0
-0.025280,0,0
-0.044727,0,0
-0.044727,0,0
-0.025280,0,0
-0.036948,0,0
-0.036948,0,0
-0.025280,0,0
-0.036948,0,0
-0.044727,0,0
-0.036948,0,0
-0.036948,0,0
-0.025280,0,0
-0.025280,0,0
-0.025280,0,0
-0.036948,0,0
-0.017502,0,0
-0.025280,0,0
-0.044727,0,0
-0.025280,0,0
-0.025280,0,0
-0.036948,0,0
-0.044727,0,0
-0.036948,0,0
-0.036948,0,0
-0.044727,0,0
-0.036948,0,0
-0.044727,0,0
-0.036948,0,0
-0.044727,0,0
-0.025280,0,0
-0.044727,0,0
-0.025280,0,0
-0.025280,0,0
-0.044727,0,0
-0.025280,0,0
-0.025280,0,0
-0.036948,0,0
-0.036948,0,0
-0.017502,0,0
-0.044727,0,0
-0.036948,0,0
-0.025280,0,0
-0.036948,0,0
-0.036948,0,0
-0.036948,0,0
-0.044727,0,0
-0.036948,0,0
-0.025280,0,0
-0.036948,0,0
-0.056395,0,0
-0.044727,0,0
-0.036948,0,0
-0.036948,0,0
-0.036948,0,0
-0.025280,0,0
-0.036948,0,0
-0.025280,0,0
-0.025280,0,0
-0.044727,0,0
-0.044727,0,0
-0.025280,0,0
-0.044727,0,0
-0.044727,0,0
-0.056395,0,0
-0.025280,0,0
-0.025280,0,0
-0.056395,0,0
-0.025280,0,0
-0.056395,0,0
-0.036948,0,0
-0.044727,0,0
-0.036948,0,0
-0.036948,0,0
-0.044727,0,0
-0.036948,0,0
-0.036948,0,0
-0.036948,0,0
-0.036948,0,0
-0.036948,0,0
-0.044727,0,0
-0.036948,0,0
-0.025280,0,0
-0.036948,0,0
-0.036948,0,0
-0.036948,0,0
-0.025280,0,0
-0.044727,0,0
-0.036948,0,0
-0.044727,0,0
-0.044727,0,0
-0.036948,0,0
-0.036948,0,0
-0.056395,0,0
-0.025280,0,0
-0.025280,0,0
-0.056395,0,0
-0.025280,0,0
-0.025280,0,0
-0.025280,0,0
-0.025280,0,0
-0.036948,0,0
-0.036948,0,0
-0.044727,0,0
-0.025280,0,0
-0.036948,0,0
-0.044727,0,0
-0.036948,0,0
-0.025280,0,0
-0.025280,0,0
-0.025280,0,0
-0.025280,0,0
-0.036948,0,0
-0.036948,0,0
-0.036948,0,0
-0.036948,0,0
-0.044727,0,0
-0.036948,0,0
-0.036948,0,0
-0.025280,0,0
-0.044727,0,0
-0.036948,0,0
-0.025280,0,0
-0.044727,0,0
-0.025280,0,0
-0.036948,0,0
-0.025280,0,0
-0.025280,0,0
-0.025280,0,0
-0.025280,0,0
-0.036948,0,0
-0.036948,0,0
-0.036948,0,0
-0.036948,0,0
-0.036948,0,0
-0.036948,0,0
-0.044727,0,0
-0.036948,0,0
-0.036948,0,0
