dokumanlar/LVT/Armes 5000 A pano/4000 a şalter akım ayarı ch4 gerilim.csv

#CLOCK=0.200000000
#SIZE=1000
#PROBE=2
#VOLTDIV=8
-2.427877,0,0
-0.485575,0,0
0.485575,0,0
-1.456726,0,0
-3.399027,0,0
-5.341329,0,0
-6.312479,0,0
-7.283630,0,0
-6.312479,0,0
-4.370178,0,0
-1.456726,0,0
-1.456726,0,0
-0.485575,0,0
-3.399027,0,0
-3.399027,0,0
-7.283630,0,0
-7.283630,0,0
-7.283630,0,0
-6.312479,0,0
-2.427877,0,0
-2.427877,0,0
-1.456726,0,0
-0.485575,0,0
-1.456726,0,0
-2.427877,0,0
-7.283630,0,0
-8.254780,0,0
-6.312479,0,0
-5.341329,0,0
-3.399027,0,0
-0.485575,0,0
-0.485575,0,0
0.485575,0,0
-1.456726,0,0
-2.427877,0,0
-5.341329,0,0
-6.312479,0,0
-6.312479,0,0
-6.312479,0,0
-2.427877,0,0
-0.485575,0,0
0.485575,0,0
-1.456726,0,0
-1.456726,0,0
-3.399027,0,0
-5.341329,0,0
-8.254780,0,0
-7.283630,0,0
-6.312479,0,0
-4.370178,0,0
-2.427877,0,0
-1.456726,0,0
-0.485575,0,0
-2.427877,0,0
-3.399027,0,0
-7.283630,0,0
-6.312479,0,0
-7.283630,0,0
-6.312479,0,0
-4.370178,0,0
-2.427877,0,0
-1.456726,0,0
-0.485575,0,0
-0.485575,0,0
-3.399027,0,0
-5.341329,0,0
-8.254780,0,0
-6.312479,0,0
-5.341329,0,0
-4.370178,0,0
-2.427877,0,0
-0.485575,0,0
-1.456726,0,0
-1.456726,0,0
-4.370178,0,0
-6.312479,0,0
-8.254780,0,0
-5.341329,0,0
-5.341329,0,0
-4.370178,0,0
-2.427877,0,0
0.485575,0,0
-1.456726,0,0
-2.427877,0,0
-4.370178,0,0
-5.341329,0,0
-7.283630,0,0
-6.312479,0,0
-5.341329,0,0
-3.399027,0,0
-1.456726,0,0
-0.485575,0,0
1.456726,0,0
-0.485575,0,0
-3.399027,0,0
-6.312479,0,0
-6.312479,0,0
-6.312479,0,0
-5.341329,0,0
-2.427877,0,0
-2.427877,0,0
-0.485575,0,0
-1.456726,0,0
-1.456726,0,0
-5.341329,0,0
-6.312479,0,0
-7.283630,0,0
-6.312479,0,0
-6.312479,0,0
-3.399027,0,0
-2.427877,0,0
-0.485575,0,0
-2.427877,0,0
-1.456726,0,0
-5.341329,0,0
-6.312479,0,0
-8.254780,0,0
-6.312479,0,0
-7.283630,0,0
-4.370178,0,0
-2.427877,0,0
0.485575,0,0
1.456726,0,0
-2.427877,0,0
-5.341329,0,0
-6.312479,0,0
-6.312479,0,0
-8.254780,0,0
-5.341329,0,0
-2.427877,0,0
-1.456726,0,0
0.485575,0,0
0.485575,0,0
-1.456726,0,0
-2.427877,0,0
-6.312479,0,0
-6.312479,0,0
-7.283630,0,0
-6.312479,0,0
-3.399027,0,0
-1.456726,0,0
-0.485575,0,0
-0.485575,0,0
-2.427877,0,0
-5.341329,0,0
-6.312479,0,0
-6.312479,0,0
-7.283630,0,0
-4.370178,0,0
-4.370178,0,0
-0.485575,0,0
-1.456726,0,0
-0.485575,0,0
-1.456726,0,0
-3.399027,0,0
-7.283630,0,0
-7.283630,0,0
-6.312479,0,0
-5.341329,0,0
-5.341329,0,0
-0.485575,0,0
0.485575,0,0
-0.485575,0,0
-5.341329,0,0
-4.370178,0,0
-5.341329,0,0
-6.312479,0,0
-7.283630,0,0
-6.312479,0,0
-2.427877,0,0
-1.456726,0,0
-0.485575,0,0
-0.485575,0,0
-1.456726,0,0
-4.370178,0,0
-4.370178,0,0
-7.283630,0,0
-6.312479,0,0
-5.341329,0,0
-3.399027,0,0
-2.427877,0,0
0.485575,0,0
0.485575,0,0
-2.427877,0,0
-5.341329,0,0
-5.341329,0,0
-7.283630,0,0
-6.312479,0,0
-5.341329,0,0
-1.456726,0,0
-0.485575,0,0
-2.427877,0,0
-0.485575,0,0
-1.456726,0,0
-5.341329,0,0
-7.283630,0,0
-6.312479,0,0
-6.312479,0,0
-2.427877,0,0
84.975682,0,0
71.379572,0,0
-275.321208,0,0
8.254780,0,0
7.283630,0,0
0.485575,0,0
-10.197082,0,0
-18.937438,0,0
-19.908588,0,0
-15.052835,0,0
-7.283630,0,0
3.399027,0,0
6.312479,0,0
14.081684,0,0
7.283630,0,0
0.485575,0,0
-11.168232,0,0
-17.966287,0,0
-19.908588,0,0
-15.052835,0,0
-7.283630,0,0
1.456726,0,0
9.225931,0,0
12.139383,0,0
7.283630,0,0
0.485575,0,0
-9.225931,0,0
-17.966287,0,0
-20.879739,0,0
-14.081684,0,0
-7.283630,0,0
4.370178,0,0
8.254780,0,0
13.110534,0,0
5.341329,0,0
0.485575,0,0
-11.168232,0,0
-16.995136,0,0
-18.937438,0,0
-14.081684,0,0
-7.283630,0,0
3.399027,0,0
9.225931,0,0
10.197082,0,0
7.283630,0,0
0.485575,0,0
-12.139383,0,0
-16.023986,0,0
-17.966287,0,0
-15.052835,0,0
-8.254780,0,0
0.485575,0,0
8.254780,0,0
10.197082,0,0
-6.312479,0,0
-5.341329,0,0
-3.399027,0,0
-6.312479,0,0
-3.399027,0,0
-3.399027,0,0
-2.427877,0,0
-4.370178,0,0
-4.370178,0,0
-3.399027,0,0
-5.341329,0,0
-5.341329,0,0
-3.399027,0,0
-2.427877,0,0
-2.427877,0,0
-3.399027,0,0
-5.341329,0,0
-2.427877,0,0
-4.370178,0,0
-5.341329,0,0
-4.370178,0,0
-4.370178,0,0
-3.399027,0,0
-2.427877,0,0
-3.399027,0,0
-3.399027,0,0
-3.399027,0,0
-2.427877,0,0
-6.312479,0,0
-4.370178,0,0
-4.370178,0,0
-5.341329,0,0
-4.370178,0,0
-3.399027,0,0
-2.427877,0,0
-4.370178,0,0
-2.427877,0,0
-3.399027,0,0
-4.370178,0,0
-3.399027,0,0
-2.427877,0,0
-4.370178,0,0
-3.399027,0,0
-3.399027,0,0
-2.427877,0,0
-5.341329,0,0
-2.427877,0,0
-3.399027,0,0
-3.399027,0,0
-3.399027,0,0
-3.399027,0,0
-4.370178,0,0
-3.399027,0,0
-2.427877,0,0
-4.370178,0,0
-3.399027,0,0
-2.427877,0,0
-3.399027,0,0
-5.341329,0,0
-3.399027,0,0
-4.370178,0,0
-3.399027,0,0
-3.399027,0,0
-4.370178,0,0
-3.399027,0,0
-2.427877,0,0
-3.399027,0,0
-3.399027,0,0
-3.399027,0,0
-4.370178,0,0
-3.399027,0,0
-3.399027,0,0
-2.427877,0,0
-3.399027,0,0
-2.427877,0,0
-2.427877,0,0
-4.370178,0,0
-3.399027,0,0
-3.399027,0,0
-3.399027,0,0
-3.399027,0,0
-3.399027,0,0
-3.399027,0,0
-3.399027,0,0
-2.427877,0,0
-2.427877,0,0
-2.427877,0,0
-3.399027,0,0
-5.341329,0,0
-3.399027,0,0
-3.399027,0,0
-5.341329,0,0
-4.370178,0,0
-3.399027,0,0
-3.399027,0,0
-4.370178,0,0
-3.399027,0,0
-2.427877,0,0
-5.341329,0,0
-4.370178,0,0
-3.399027,0,0
-5.341329,0,0
-5.341329,0,0
-3.399027,0,0
-3.399027,0,0
-4.370178,0,0
-3.399027,0,0
-3.399027,0,0
-6.312479,0,0
-5.341329,0,0
-5.341329,0,0
-5.341329,0,0
-4.370178,0,0
-2.427877,0,0
-4.370178,0,0
-3.399027,0,0
-2.427877,0,0
-4.370178,0,0
-3.399027,0,0
-2.427877,0,0
-5.341329,0,0
-4.370178,0,0
-3.399027,0,0
-2.427877,0,0
-4.370178,0,0
-4.370178,0,0
-3.399027,0,0
-3.399027,0,0
-4.370178,0,0
-3.399027,0,0
-3.399027,0,0
-6.312479,0,0
-4.370178,0,0
-5.341329,0,0
-3.399027,0,0
-4.370178,0,0
-2.427877,0,0
-5.341329,0,0
-4.370178,0,0
-5.341329,0,0
-5.341329,0,0
-4.370178,0,0
-3.399027,0,0
-5.341329,0,0
-3.399027,0,0
-3.399027,0,0
-2.427877,0,0
-3.399027,0,0
-4.370178,0,0
-5.341329,0,0
-4.370178,0,0
-4.370178,0,0
-5.341329,0,0
-3.399027,0,0
-4.370178,0,0
-3.399027,0,0
-3.399027,0,0
-2.427877,0,0
-4.370178,0,0
-3.399027,0,0
-4.370178,0,0
-5.341329,0,0
-3.399027,0,0
-3.399027,0,0
-4.370178,0,0
-3.399027,0,0
-3.399027,0,0
-4.370178,0,0
-3.399027,0,0
-3.399027,0,0
-4.370178,0,0
-3.399027,0,0
-2.427877,0,0
-3.399027,0,0
-3.399027,0,0
-2.427877,0,0
-5.341329,0,0
-3.399027,0,0
-3.399027,0,0
-4.370178,0,0
-3.399027,0,0
-3.399027,0,0
-2.427877,0,0
-3.399027,0,0
-2.427877,0,0
-4.370178,0,0
-3.399027,0,0
-2.427877,0,0
-3.399027,0,0
-5.341329,0,0
-3.399027,0,0
-4.370178,0,0
-3.399027,0,0
-2.427877,0,0
-3.399027,0,0
-3.399027,0,0
-2.427877,0,0
-3.399027,0,0
-4.370178,0,0
-3.399027,0,0
-4.370178,0,0
-3.399027,0,0
-2.427877,0,0
-4.370178,0,0
-3.399027,0,0
-3.399027,0,0
-4.370178,0,0
-3.399027,0,0
-3.399027,0,0
-4.370178,0,0
-4.370178,0,0
-3.399027,0,0
-3.399027,0,0
-4.370178,0,0
-2.427877,0,0
-2.427877,0,0
-3.399027,0,0
-2.427877,0,0
-3.399027,0,0
-3.399027,0,0
-3.399027,0,0
-3.399027,0,0
-3.399027,0,0
-3.399027,0,0
-2.427877,0,0
-3.399027,0,0
-2.427877,0,0
-4.370178,0,0
-4.370178,0,0
-4.370178,0,0
-3.399027,0,0
-4.370178,0,0
-4.370178,0,0
-2.427877,0,0
-2.427877,0,0
-4.370178,0,0
-3.399027,0,0
-4.370178,0,0
-4.370178,0,0
-5.341329,0,0
-5.341329,0,0
-3.399027,0,0
-4.370178,0,0
-3.399027,0,0
-5.341329,0,0
-4.370178,0,0
-4.370178,0,0
-3.399027,0,0
-3.399027,0,0
-5.341329,0,0
-3.399027,0,0
-2.427877,0,0
-5.341329,0,0
-3.399027,0,0
-2.427877,0,0
-4.370178,0,0
-3.399027,0,0
-4.370178,0,0
-5.341329,0,0
-4.370178,0,0
-5.341329,0,0
-5.341329,0,0
-5.341329,0,0
-5.341329,0,0
-2.427877,0,0
-5.341329,0,0
-3.399027,0,0
-3.399027,0,0
-3.399027,0,0
-5.341329,0,0
-4.370178,0,0
-5.341329,0,0
-4.370178,0,0
-3.399027,0,0
-5.341329,0,0
-4.370178,0,0
-4.370178,0,0
-5.341329,0,0
-4.370178,0,0
-4.370178,0,0
-3.399027,0,0
-4.370178,0,0
-5.341329,0,0
-4.370178,0,0
-3.399027,0,0
-2.427877,0,0
-3.399027,0,0
-5.341329,0,0
-3.399027,0,0
-4.370178,0,0
-5.341329,0,0
-4.370178,0,0
-4.370178,0,0
-4.370178,0,0
-3.399027,0,0
-3.399027,0,0
-4.370178,0,0
-3.399027,0,0
-4.370178,0,0
-4.370178,0,0
-5.341329,0,0
-2.427877,0,0
-2.427877,0,0
-4.370178,0,0
-3.399027,0,0
-2.427877,0,0
-3.399027,0,0
-4.370178,0,0
-3.399027,0,0
-4.370178,0,0
-5.341329,0,0
-3.399027,0,0
-2.427877,0,0
-4.370178,0,0
-3.399027,0,0
-3.399027,0,0
-2.427877,0,0
-3.399027,0,0
-3.399027,0,0
-2.427877,0,0
-5.341329,0,0
-4.370178,0,0
-3.399027,0,0
-3.399027,0,0
-4.370178,0,0
-2.427877,0,0
-3.399027,0,0
-3.399027,0,0
-4.370178,0,0
-3.399027,0,0
-4.370178,0,0
-3.399027,0,0
-2.427877,0,0
-4.370178,0,0
-2.427877,0,0
-2.427877,0,0
-4.370178,0,0
-4.370178,0,0
-3.399027,0,0
-4.370178,0,0
-4.370178,0,0
-5.341329,0,0
-4.370178,0,0
-4.370178,0,0
-3.399027,0,0
-3.399027,0,0
-3.399027,0,0
-3.399027,0,0
-3.399027,0,0
-3.399027,0,0
-5.341329,0,0
-3.399027,0,0
-4.370178,0,0
-4.370178,0,0
-4.370178,0,0
-2.427877,0,0
-5.341329,0,0
-5.341329,0,0
-2.427877,0,0
-5.341329,0,0
-5.341329,0,0
-2.427877,0,0
-5.341329,0,0
-5.341329,0,0
-4.370178,0,0
-3.399027,0,0
-3.399027,0,0
-5.341329,0,0
-5.341329,0,0
-4.370178,0,0
-6.312479,0,0
-3.399027,0,0
-5.341329,0,0
-2.427877,0,0
-3.399027,0,0
-2.427877,0,0
-4.370178,0,0
-2.427877,0,0
-5.341329,0,0
-3.399027,0,0
-3.399027,0,0
-4.370178,0,0
-2.427877,0,0
-3.399027,0,0
-3.399027,0,0
-4.370178,0,0
-3.399027,0,0
-2.427877,0,0
-5.341329,0,0
-4.370178,0,0
-3.399027,0,0
-5.341329,0,0
-6.312479,0,0
-4.370178,0,0
-3.399027,0,0
-4.370178,0,0
-4.370178,0,0
-3.399027,0,0
-2.427877,0,0
-5.341329,0,0
-5.341329,0,0
-3.399027,0,0
-4.370178,0,0
-3.399027,0,0
-2.427877,0,0
-3.399027,0,0
-4.370178,0,0
-3.399027,0,0
-2.427877,0,0
-6.312479,0,0
-4.370178,0,0
-4.370178,0,0
-3.399027,0,0
-3.399027,0,0
-3.399027,0,0
-2.427877,0,0
-3.399027,0,0
-2.427877,0,0
-5.341329,0,0
-3.399027,0,0
-3.399027,0,0
-3.399027,0,0
-3.399027,0,0
-3.399027,0,0
-2.427877,0,0
-5.341329,0,0
-2.427877,0,0
-3.399027,0,0
-4.370178,0,0
-4.370178,0,0
-4.370178,0,0
-5.341329,0,0
-5.341329,0,0
-2.427877,0,0
-5.341329,0,0
-5.341329,0,0
-4.370178,0,0
-3.399027,0,0
-4.370178,0,0
-4.370178,0,0
-4.370178,0,0
-5.341329,0,0
-2.427877,0,0
-3.399027,0,0
-3.399027,0,0
-5.341329,0,0
-4.370178,0,0
-3.399027,0,0
-4.370178,0,0
-4.370178,0,0
-5.341329,0,0
-5.341329,0,0
-4.370178,0,0
-4.370178,0,0
-5.341329,0,0
-2.427877,0,0
-4.370178,0,0
-2.427877,0,0
-2.427877,0,0
-4.370178,0,0
-5.341329,0,0
-4.370178,0,0
-2.427877,0,0
-4.370178,0,0
-3.399027,0,0
-4.370178,0,0
-4.370178,0,0
-3.399027,0,0
-4.370178,0,0
-4.370178,0,0
-3.399027,0,0
-2.427877,0,0
-4.370178,0,0
-3.399027,0,0
-3.399027,0,0
-3.399027,0,0
-3.399027,0,0
-2.427877,0,0
-4.370178,0,0
-3.399027,0,0
-3.399027,0,0
-3.399027,0,0
-3.399027,0,0
-3.399027,0,0
-3.399027,0,0
-3.399027,0,0
-3.399027,0,0
-3.399027,0,0
-5.341329,0,0
-3.399027,0,0
-3.399027,0,0
-5.341329,0,0
-5.341329,0,0
-3.399027,0,0
-3.399027,0,0
-4.370178,0,0
-4.370178,0,0
-2.427877,0,0
-5.341329,0,0
-4.370178,0,0
-2.427877,0,0
-4.370178,0,0
-3.399027,0,0
-3.399027,0,0
-3.399027,0,0
-4.370178,0,0
-4.370178,0,0
-5.341329,0,0
-5.341329,0,0
-4.370178,0,0
-5.341329,0,0
-2.427877,0,0
-4.370178,0,0
-3.399027,0,0
-2.427877,0,0
-5.341329,0,0
-4.370178,0,0
-3.399027,0,0
-5.341329,0,0
-3.399027,0,0
-4.370178,0,0
-4.370178,0,0
-2.427877,0,0
-4.370178,0,0
-5.341329,0,0
-2.427877,0,0
-4.370178,0,0
-4.370178,0,0
-5.341329,0,0
-3.399027,0,0
-4.370178,0,0
-3.399027,0,0
-3.399027,0,0
-4.370178,0,0
-2.427877,0,0
-3.399027,0,0
-4.370178,0,0
-2.427877,0,0
-5.341329,0,0
-4.370178,0,0
-4.370178,0,0
-3.399027,0,0
-3.399027,0,0
-3.399027,0,0
-3.399027,0,0
-3.399027,0,0
-5.341329,0,0
-3.399027,0,0
-3.399027,0,0
-4.370178,0,0
-5.341329,0,0
-3.399027,0,0
-4.370178,0,0
-3.399027,0,0
-3.399027,0,0
-2.427877,0,0
-3.399027,0,0
-2.427877,0,0
-4.370178,0,0
-5.341329,0,0
-2.427877,0,0
-4.370178,0,0
-3.399027,0,0
-2.427877,0,0
-3.399027,0,0
-3.399027,0,0
-2.427877,0,0
-2.427877,0,0
-4.370178,0,0
-2.427877,0,0
-3.399027,0,0
-3.399027,0,0
-3.399027,0,0
-4.370178,0,0
-3.399027,0,0
-3.399027,0,0
-2.427877,0,0
-4.370178,0,0
-5.341329,0,0
-5.341329,0,0
-4.370178,0,0
-3.399027,0,0
-3.399027,0,0
-3.399027,0,0
-4.370178,0,0
-2.427877,0,0
-2.427877,0,0
-3.399027,0,0
-5.341329,0,0
-3.399027,0,0
-5.341329,0,0
-3.399027,0,0
-3.399027,0,0
-4.370178,0,0
-3.399027,0,0
-2.427877,0,0
-5.341329,0,0
-3.399027,0,0
-3.399027,0,0
-3.399027,0,0
-6.312479,0,0
-5.341329,0,0
-4.370178,0,0
-5.341329,0,0
-3.399027,0,0
-2.427877,0,0
-5.341329,0,0
-3.399027,0,0
-5.341329,0,0
-5.341329,0,0
-4.370178,0,0
-5.341329,0,0
-5.341329,0,0
-5.341329,0,0
-3.399027,0,0
-3.399027,0,0
-3.399027,0,0
-3.399027,0,0
-4.370178,0,0
-4.370178,0,0
-4.370178,0,0
-4.370178,0,0
-4.370178,0,0
-3.399027,0,0
-2.427877,0,0
-4.370178,0,0
-3.399027,0,0
-3.399027,0,0
-3.399027,0,0
-3.399027,0,0
-2.427877,0,0
-4.370178,0,0
-4.370178,0,0
-3.399027,0,0
-3.399027,0,0
-3.399027,0,0
-4.370178,0,0
-3.399027,0,0
-2.427877,0,0
-4.370178,0,0
-3.399027,0,0
-3.399027,0,0
-4.370178,0,0
-3.399027,0,0
-2.427877,0,0
-2.427877,0,0
-3.399027,0,0
-3.399027,0,0
-3.399027,0,0
-3.399027,0,0
-3.399027,0,0
-4.370178,0,0
-4.370178,0,0
-3.399027,0,0
-3.399027,0,0
-4.370178,0,0
-3.399027,0,0
-2.427877,0,0
-4.370178,0,0
-3.399027,0,0
-4.370178,0,0
-3.399027,0,0
-5.341329,0,0
-3.399027,0,0
-2.427877,0,0
-3.399027,0,0
-2.427877,0,0
-3.399027,0,0
-4.370178,0,0
-5.341329,0,0
-5.341329,0,0
-3.399027,0,0
-3.399027,0,0
-2.427877,0,0
-3.399027,0,0
-3.399027,0,0
-2.427877,0,0
-2.427877,0,0
-3.399027,0,0
-3.399027,0,0
-2.427877,0,0
-6.312479,0,0
-3.399027,0,0
-3.399027,0,0
-4.370178,0,0
-3.399027,0,0
-5.341329,0,0
-5.341329,0,0
-4.370178,0,0
-5.341329,0,0
-5.341329,0,0
-3.399027,0,0
-3.399027,0,0
-2.427877,0,0
-4.370178,0,0
-3.399027,0,0
-2.427877,0,0
-4.370178,0,0
-5.341329,0,0
-5.341329,0,0
-5.341329,0,0
-4.370178,0,0
-3.399027,0,0
-3.399027,0,0
-4.370178,0,0
-3.399027,0,0
-2.427877,0,0
-4.370178,0,0
-3.399027,0,0
-5.341329,0,0
-5.341329,0,0
-3.399027,0,0
-2.427877,0,0
-5.341329,0,0
-3.399027,0,0
-3.399027,0,0
-3.399027,0,0
-4.370178,0,0
-5.341329,0,0
-5.341329,0,0
-6.312479,0,0
-5.341329,0,0
-2.427877,0,0
-4.370178,0,0
-4.370178,0,0
-2.427877,0,0
-4.370178,0,0
-5.341329,0,0
-5.341329,0,0
-5.341329,0,0
-4.370178,0,0
-5.341329,0,0
-3.399027,0,0
-4.370178,0,0
-3.399027,0,0
-3.399027,0,0
-4.370178,0,0
-4.370178,0,0
-3.399027,0,0
-5.341329,0,0
-4.370178,0,0
-2.427877,0,0
-4.370178,0,0
-4.370178,0,0
-3.399027,0,0
-3.399027,0,0
-4.370178,0,0
